# On how to update dependencies see projects/common/how-to-create-gradle-dependencies-list.txt
# Don't forget to update var/gradle_dependencies_version when modifying this file
sha256sum | url
857db5645aaefbd7fbe9ba6454b072bc0518ebaba08a93d5eae89a9850e949c4 | https://jcenter.bintray.com/com/getkeepsafe/dexcount/dexcount-gradle-plugin/0.8.2/dexcount-gradle-plugin-0.8.2.jar
15d4b252c5aa3aeb8d634ae5aaf348ac6ce183b6b5e3615364e6c083715c1133 | https://jcenter.bintray.com/com/getkeepsafe/dexcount/dexcount-gradle-plugin/0.8.2/dexcount-gradle-plugin-0.8.2.pom
c98f1b0978cfd24712c27388e040c50ce0692252b3aa9448603d9efa05ebe8a8 | https://jcenter.bintray.com/com/google/auto/auto-parent/3/auto-parent-3.pom
6cac9421439b39b9f4aa76738ced039462a69911c410f2c372c196b0f4b7f4cf | https://jcenter.bintray.com/com/google/auto/value/auto-value/1.5.2/auto-value-1.5.2.jar
901fb1440a0ef8e0c0553a7bb44c0b89647bf53c8822642eea0b57173c7c688d | https://jcenter.bintray.com/com/google/auto/value/auto-value/1.5.2/auto-value-1.5.2.pom
905721a0eea90a81534abb7ee6ef4ea2e5e645fa1def0a5cd88402df1b46c9ed | https://jcenter.bintray.com/com/google/code/findbugs/jsr305/1.3.9/jsr305-1.3.9.jar
feab9191311c3d7aeef2b66d6064afc80d3d1d52d980fb07ae43c78c987ba93a | https://jcenter.bintray.com/com/google/code/findbugs/jsr305/1.3.9/jsr305-1.3.9.pom
1e7f53fa5b8b5c807e986ba335665da03f18d660802d8bf061823089d1bee468 | https://jcenter.bintray.com/com/google/code/findbugs/jsr305/2.0.1/jsr305-2.0.1.jar
02c12c3c2ae12dd475219ff691c82a4d9ea21f44bc594a181295bf6d43dcfbb0 | https://jcenter.bintray.com/com/google/code/findbugs/jsr305/2.0.1/jsr305-2.0.1.pom
766ad2a0783f2687962c8ad74ceecc38a28b9f72a2d085ee438b7813e928d0c7 | https://jcenter.bintray.com/com/google/code/findbugs/jsr305/3.0.2/jsr305-3.0.2.jar
19889dbdf1b254b2601a5ee645b8147a974644882297684c798afe5d63d78dfe | https://jcenter.bintray.com/com/google/code/findbugs/jsr305/3.0.2/jsr305-3.0.2.pom
c6221763bd79c4f1c3dc7f750b5f29a0bb38b367b81314c4f71896e340c40825 | https://jcenter.bintray.com/com/google/code/gson/gson/2.8.0/gson-2.8.0.jar
a5331a0ecb548f9942ab5b93c7ac43c38a21e897763dde1bcdbf0774f416ca6f | https://jcenter.bintray.com/com/google/code/gson/gson/2.8.0/gson-2.8.0.pom
91b9f17a54e6c340c8d3ea4b359401170706eb26a82d51909abe6ba80081aed8 | https://jcenter.bintray.com/com/google/code/gson/gson/2.8.2/gson-2.8.2.pom
233a0149fc365c9f6edbd683cfe266b19bdc773be98eabdaf6b3c924b48e7d81 | https://jcenter.bintray.com/com/google/code/gson/gson/2.8.5/gson-2.8.5.jar
b8308557a7fccc92d9fe7c8cd0599258b361285d2ecde7689eda98843255a092 | https://jcenter.bintray.com/com/google/code/gson/gson/2.8.5/gson-2.8.5.pom
0f1d8369b1e9f1bc4b467c8dcfdd8b59733aad5b5c8419c3a59b2f9abaf04cd2 | https://jcenter.bintray.com/com/google/code/gson/gson-parent/2.8.0/gson-parent-2.8.0.pom
cf5c43860b53ba5a95c19bc6525cc43d3488a6fe3df2f649c0099a613a0640e3 | https://jcenter.bintray.com/com/google/code/gson/gson-parent/2.8.2/gson-parent-2.8.2.pom
8f1fec72b91a71ea39ec39f5f778c4d1124b6b097c6d55b3a50b554a52237b27 | https://jcenter.bintray.com/com/google/code/gson/gson-parent/2.8.5/gson-parent-2.8.5.pom
2d9484f4c649f708f47f9a479465fc729770ee65617dca3011836602264f6439 | https://jcenter.bintray.com/com/googlecode/json-simple/json-simple/1.1/json-simple-1.1.jar
47a89be0fa0fedd476db5fd2c83487654d2a119c391f83a142be876667cf7dab | https://jcenter.bintray.com/com/googlecode/json-simple/json-simple/1.1/json-simple-1.1.pom
757bfe906193b8b651e79dc26cd67d6b55d0770a2cdfb0381591504f779d4a76 | https://jcenter.bintray.com/com/googlecode/juniversalchardet/juniversalchardet/1.0.3/juniversalchardet-1.0.3.jar
7846399b35c7cd642a9b3a000c3e2d62d04eb37a4547b6933cc8b18bcc2f086b | https://jcenter.bintray.com/com/googlecode/juniversalchardet/juniversalchardet/1.0.3/juniversalchardet-1.0.3.pom
cb4cfad870bf563a07199f3ebea5763f0dec440fcda0b318640b1feaa788656b | https://jcenter.bintray.com/com/google/errorprone/error_prone_annotations/2.0.18/error_prone_annotations-2.0.18.jar
9144127192d6f612c2366825dceaeb23b0d53130b83e0bf1ffe107d1470a8487 | https://jcenter.bintray.com/com/google/errorprone/error_prone_annotations/2.0.18/error_prone_annotations-2.0.18.pom
03d0329547c13da9e17c634d1049ea2ead093925e290567e1a364fd6b1fc7ff8 | https://jcenter.bintray.com/com/google/errorprone/error_prone_annotations/2.1.3/error_prone_annotations-2.1.3.jar
958cb81c393cb2996c3c6a9e867a4a4be8ddc43391672a9e4e4eba51ac7237f5 | https://jcenter.bintray.com/com/google/errorprone/error_prone_annotations/2.1.3/error_prone_annotations-2.1.3.pom
6ebd22ca1b9d8ec06d41de8d64e0596981d9607b42035f9ed374f9de271a481a | https://jcenter.bintray.com/com/google/errorprone/error_prone_annotations/2.2.0/error_prone_annotations-2.2.0.jar
5e0258ea1ba4e51a133742680bc22448f7ab214be4073e8619f645ef1be42dd5 | https://jcenter.bintray.com/com/google/errorprone/error_prone_annotations/2.2.0/error_prone_annotations-2.2.0.pom
cf149955279b07d4f11e817985c1164a69e930d73db7441b43a6ef53bbd286c4 | https://jcenter.bintray.com/com/google/errorprone/error_prone_parent/2.0.18/error_prone_parent-2.0.18.pom
d52a2616a1389fce951de0e97a780b88f1bdf0c947b315a76fd47cd6bbfb239b | https://jcenter.bintray.com/com/google/errorprone/error_prone_parent/2.1.3/error_prone_parent-2.1.3.pom
c460902ddf5ece68832c6b271ce52a0928b05cf3a6ac81a8f548c73cbd541138 | https://jcenter.bintray.com/com/google/errorprone/error_prone_parent/2.2.0/error_prone_parent-2.2.0.pom
cd6db17a11a31ede794ccbd1df0e4d9750f640234731f21cff885a9997277e81 | https://jcenter.bintray.com/com/google/google/1/google-1.pom
7baa80df284117e5b945b19b98d367a85ea7b7801bd358ff657946c3bd1b6596 | https://jcenter.bintray.com/com/google/guava/guava/23.0/guava-23.0.jar
ac2ac42a7a6b4ce5097c6c83e2fbbacbbb7f9913f1b4f993eb1723a14476324e | https://jcenter.bintray.com/com/google/guava/guava/23.0/guava-23.0.pom
a0e9cabad665bc20bcd2b01f108e5fc03f756e13aea80abaadb9f407033bea2c | https://jcenter.bintray.com/com/google/guava/guava/26.0-jre/guava-26.0-jre.jar
1c337adc9a4ab4b844da81da85936581b8946c7cb71284c5dcbdaf1eaa7ee109 | https://jcenter.bintray.com/com/google/guava/guava/26.0-jre/guava-26.0-jre.pom
66cc3a0d329f9fe130605fdb2c901e5a9bb2612f02f23a76757b46e689b3594d | https://jcenter.bintray.com/com/google/guava/guava-parent/23.0/guava-parent-23.0.pom
bb7d5cd417c0d7def5e3e27092fdd23522d3fc251ad8a07956c13ce0573aeaa3 | https://jcenter.bintray.com/com/google/guava/guava-parent/26.0-jre/guava-parent-26.0-jre.pom
2994a7eb78f2710bd3d3bfb639b2c94e219cedac0d4d084d516e78c16dddecf6 | https://jcenter.bintray.com/com/google/j2objc/j2objc-annotations/1.1/j2objc-annotations-1.1.jar
f0c98c571e93a7cb4dd18df0fa308f0963e7a0620ac2d4244e61e709d03ad6be | https://jcenter.bintray.com/com/google/j2objc/j2objc-annotations/1.1/j2objc-annotations-1.1.pom
c4828e28d7c0a930af9387510b3bada7daa5c04d7c25a75c7b8b081f1c257ddd | https://jcenter.bintray.com/com/google/jimfs/jimfs/1.1/jimfs-1.1.jar
efa86e5cd922f17b472fdfcae57234d8d4ac3e148b6250737dfce454af7a7a44 | https://jcenter.bintray.com/com/google/jimfs/jimfs/1.1/jimfs-1.1.pom
c71555751e57e0ef912870e8ac9625ae782502a6a5b9c19ccf83b2a97d8b26bd | https://jcenter.bintray.com/com/google/jimfs/jimfs-parent/1.1/jimfs-parent-1.1.pom
dce7e66b32456a1b1198da0caff3a8acb71548658391e798c79369241e6490a4 | https://jcenter.bintray.com/com/google/protobuf/protobuf-java/3.4.0/protobuf-java-3.4.0.jar
83f17ba86c5fa1a15a3a3c8030d4ce42ef21c1d39b65db6cc004a8eeb2c59406 | https://jcenter.bintray.com/com/google/protobuf/protobuf-java/3.4.0/protobuf-java-3.4.0.pom
4189e0be5ab15cf2330f70b24fbdc75ca37514f188388fce8580ce16a9a68052 | https://jcenter.bintray.com/com/google/protobuf/protobuf-java-util/3.4.0/protobuf-java-util-3.4.0.jar
89c43073e7eaa0eaba72a4a36ae1b6bfdfe5d81bb9d0e156aee05e4a72de3cb8 | https://jcenter.bintray.com/com/google/protobuf/protobuf-java-util/3.4.0/protobuf-java-util-3.4.0.pom
24909c552842c0eb7a4c769d631a43cbef5a9a10c1640f2bdbd1ea149c573a47 | https://jcenter.bintray.com/com/google/protobuf/protobuf-parent/3.4.0/protobuf-parent-3.4.0.pom
f715b19c918900ad34be8f2e2372d97b1c5fff579a383f0b2dad9581df443ea4 | https://jcenter.bintray.com/com/koushikdutta/async/androidasync/2.2.1/androidasync-2.2.1.aar
522714e46eb74d494c94e37e17114030e618a7560141720998d82f363d1fcd47 | https://jcenter.bintray.com/com/koushikdutta/async/androidasync/2.2.1/androidasync-2.2.1.pom
4241dfa94e711d435f29a4604a3e2de5c4aa3c165e23bd066be6fc1fc4309569 | https://jcenter.bintray.com/commons-codec/commons-codec/1.10/commons-codec-1.10.jar
bdb8db7012d112a6e3ea8fdb7c510b300d99eff0819d27dddba9c43397ea4cfb | https://jcenter.bintray.com/commons-codec/commons-codec/1.10/commons-codec-1.10.pom
ad19d2601c3abf0b946b5c3a4113e226a8c1e3305e395b90013b78dd94a723ce | https://jcenter.bintray.com/commons-codec/commons-codec/1.9/commons-codec-1.9.jar
e5efcf039cd909688c201dc5479b144fd6f01f0e40252b7fc5e7d2e1b5c07990 | https://jcenter.bintray.com/commons-codec/commons-codec/1.9/commons-codec-1.9.pom
cc6a41dc3eaacc9e440a6bd0d2890b20d36b4ee408fe2d67122f328bb6e01581 | https://jcenter.bintray.com/commons-io/commons-io/2.4/commons-io-2.4.jar
b2b5dd46cf998fa626eb6f8a1c114f6167c8d392694164e62533e5898e9b31f2 | https://jcenter.bintray.com/commons-io/commons-io/2.4/commons-io-2.4.pom
daddea1ea0be0f56978ab3006b8ac92834afeefbd9b7e4e6316fca57df0fa636 | https://jcenter.bintray.com/commons-logging/commons-logging/1.2/commons-logging-1.2.jar
c91ab5aa570d86f6fd07cc158ec6bc2c50080402972ee9179fe24100739fbb20 | https://jcenter.bintray.com/commons-logging/commons-logging/1.2/commons-logging-1.2.pom
8e108c92027bb428196f10fa11cffbe589f7648a6af2016d652279385fdfd789 | https://jcenter.bintray.com/com/squareup/javapoet/1.8.0/javapoet-1.8.0.jar
b3760f40f19e735b2cd418f7656335d926d1d9413e10982a1c9695b64edbb647 | https://jcenter.bintray.com/com/squareup/javapoet/1.8.0/javapoet-1.8.0.pom
f699823d0081f69cbb676c1845ea222e0ada79bc88a53e5d22d8bd02d328f57e | https://jcenter.bintray.com/com/squareup/javawriter/2.1.1/javawriter-2.1.1.jar
d47fc646324c22c66f2b0e0e743c850dde9a51990c53925e7501d960f2e8df84 | https://jcenter.bintray.com/com/squareup/javawriter/2.1.1/javawriter-2.1.1.pom
fcfb09fb0ea0aa97d3cfe7ea792398081348e468f126b3603cb3803f240197f0 | https://jcenter.bintray.com/com/squareup/javawriter/2.5.0/javawriter-2.5.0.jar
e1abd7f1116cf5e0c59947693e2189208ec94296b2a3394c959e3511d399a7b0 | https://jcenter.bintray.com/com/squareup/javawriter/2.5.0/javawriter-2.5.0.pom
1d8518e3ac7532a104e4f7be77def37c982e530723c6bdb3d67708cce2b0c2c4 | https://jcenter.bintray.com/com/sun/activation/all/1.2.0/all-1.2.0.pom
993302b16cd7056f21e779cc577d175a810bb4900ef73cd8fbf2b50f928ba9ce | https://jcenter.bintray.com/com/sun/activation/javax.activation/1.2.0/javax.activation-1.2.0.jar
f879b6e945854c6900b0dbee1c8384d7ab3de7e157fd7ac84937405c416d2a5e | https://jcenter.bintray.com/com/sun/activation/javax.activation/1.2.0/javax.activation-1.2.0.pom
c3071277f89b162982606b4e65c92077212efb6cbf1bdc365c51bd0b57ac818c | https://jcenter.bintray.com/com/sun/istack/istack-commons/2.21/istack-commons-2.21.pom
c33e67a0807095f02a0e2da139412dd7c4f9cc1a4c054b3e434f96831ba950f4 | https://jcenter.bintray.com/com/sun/istack/istack-commons-runtime/2.21/istack-commons-runtime-2.21.jar
ebe7137b5fbfd050545f9a7f3f339ae55beb0b53755071b4fd62aa024c626d1c | https://jcenter.bintray.com/com/sun/istack/istack-commons-runtime/2.21/istack-commons-runtime-2.21.pom
b25e0693de21cb92b039a2e4608f396590fb8773108f10d6dc9f1465f03b5be9 | https://jcenter.bintray.com/com/sun/xml/bind/jaxb-bom-ext/2.2.11/jaxb-bom-ext-2.2.11.pom
b5301b711c01547e571b615f9a0832ee525d34a4ce3372f53907a87cf20b0480 | https://jcenter.bintray.com/com/sun/xml/bind/mvn/jaxb-parent/2.2.11/jaxb-parent-2.2.11.pom
21918cb8e4eda67f24251e909a5d81672201d93604c4ffbf33522ad836a58e90 | https://jcenter.bintray.com/com/sun/xml/bind/mvn/jaxb-runtime-parent/2.2.11/jaxb-runtime-parent-2.2.11.pom
9a398c699a5d3f3b56f1056c68890ede25d94a12d98eabc2a473733e6ab2362c | https://jcenter.bintray.com/com/sun/xml/bind/mvn/jaxb-txw-parent/2.2.11/jaxb-txw-parent-2.2.11.pom
27a77db909f3c2833c0b1a37c55af1db06045118ad2eed96ce567b6632bce038 | https://jcenter.bintray.com/com/sun/xml/fastinfoset/FastInfoset/1.2.13/FastInfoset-1.2.13.jar
b7505e0ecf7d495b4daa3e6569f71611d1a789dc531cbd92a2025922ff2655d3 | https://jcenter.bintray.com/com/sun/xml/fastinfoset/FastInfoset/1.2.13/FastInfoset-1.2.13.pom
fd0857899f1067e0287c2ffd91e38f967a26bd405b83a34650c2742cee9fc261 | https://jcenter.bintray.com/com/sun/xml/fastinfoset/fastinfoset-project/1.2.13/fastinfoset-project-1.2.13.pom
453637054b08115122b7c7b2acf87e912e1613a78f37be3e9e6779cd0830d43e | https://jcenter.bintray.com/de/undercouch/gradle-download-task/3.4.3/gradle-download-task-3.4.3.jar
c8300fbf69d2240f5eae5a88a76f06f67e7c604d0328813de22b75174879a9e5 | https://jcenter.bintray.com/de/undercouch/gradle-download-task/3.4.3/gradle-download-task-3.4.3.pom
74fa208043740642f7e6eb09faba15965218ad2f50ce3020efb100136e4b591c | https://jcenter.bintray.com/it/unimi/dsi/fastutil/7.2.0/fastutil-7.2.0.jar
953b116521a73575eee990e3f2c36a892fb088bb2d9a3027c82193cb7a013ef7 | https://jcenter.bintray.com/it/unimi/dsi/fastutil/7.2.0/fastutil-7.2.0.pom
91c77044a50c481636c32d916fd89c9118a72195390452c81065080f957de7ff | https://jcenter.bintray.com/javax/inject/javax.inject/1/javax.inject-1.jar
943e12b100627804638fa285805a0ab788a680266531e650921ebfe4621a8bfa | https://jcenter.bintray.com/javax/inject/javax.inject/1/javax.inject-1.pom
b5e60cd8b7b5ff01ce4a74c5dd008f4fbd14ced3495d0b47b85cfedc182211f2 | https://jcenter.bintray.com/javax/xml/bind/jaxb-api/2.2.12-b140109.1041/jaxb-api-2.2.12-b140109.1041.jar
2092a7d8d9bc5698c59b094bdea46622915c48c83ae66d5b5ad549c7bf16155b | https://jcenter.bintray.com/javax/xml/bind/jaxb-api/2.2.12-b140109.1041/jaxb-api-2.2.12-b140109.1041.pom
59721f0805e223d84b90677887d9ff567dc534d7c502ca903c0c2b17f05c116a | https://jcenter.bintray.com/junit/junit/4.12/junit-4.12.jar
90f163f78e3ffb6f1c7ad97de9e7eba4eea25807141b85d6d12be67ca25449c4 | https://jcenter.bintray.com/junit/junit/4.12/junit-4.12.pom
281440811268e65d9e266b3cc898297e214e04f09740d0386ceeb4a8923d63bf | https://jcenter.bintray.com/net/java/jvnet-parent/1/jvnet-parent-1.pom
30f5789efa39ddbf96095aada3fc1260c4561faf2f714686717cb2dc5049475a | https://jcenter.bintray.com/net/java/jvnet-parent/3/jvnet-parent-3.pom
471395735549495297c8ff939b9a32e08b91302020ff773586d27e497abb8fbb | https://jcenter.bintray.com/net/java/jvnet-parent/4/jvnet-parent-4.pom
26c5856e954b5f864db76f13b86919b59c6eecf9fd930b96baa8884626baf2f5 | https://jcenter.bintray.com/net/sf/jopt-simple/jopt-simple/4.9/jopt-simple-4.9.jar
7af7e2d8b24b4798f04c2b7da24c9fbd1b7557b4e017c2054481565916079092 | https://jcenter.bintray.com/net/sf/jopt-simple/jopt-simple/4.9/jopt-simple-4.9.pom
f264dd9f79a1fde10ce5ecc53221eff24be4c9331c830b7d52f2f08a7b633de2 | https://jcenter.bintray.com/net/sf/kxml/kxml2/2.3.0/kxml2-2.3.0.jar
31ce606f4e9518936299bb0d27c978fa61e185fd1de7c9874fe959a53e34a685 | https://jcenter.bintray.com/net/sf/kxml/kxml2/2.3.0/kxml2-2.3.0.pom
75bc89695fa66e75374ecda439b802406f0ab1d826dd386eed0a23b1f0a9d264 | https://jcenter.bintray.com/net/sf/proguard/proguard-base/6.0.3/proguard-base-6.0.3.jar
2a823d79f2675582a988d539466d1b175e939782efbe0f6e61f06cb165ed4907 | https://jcenter.bintray.com/net/sf/proguard/proguard-base/6.0.3/proguard-base-6.0.3.pom
cc12b1168e521491dd0e687cfebec11a4af874b22af70e10cf2a05b47ca00c8f | https://jcenter.bintray.com/net/sf/proguard/proguard-gradle/6.0.3/proguard-gradle-6.0.3.jar
5a5c7317d68ce80d1d40c9d8bd4e38814d42d1b16c265146e333634833a35a57 | https://jcenter.bintray.com/net/sf/proguard/proguard-gradle/6.0.3/proguard-gradle-6.0.3.pom
d87266bfd2312c3b036c4ac709310afa35c448ceb18027c3b87a33d03c6de0a0 | https://jcenter.bintray.com/net/sf/proguard/proguard-parent/6.0.3/proguard-parent-6.0.3.pom
a32de739cfdf515774e696f91aa9697d2e7731e5cb5045ca8a4b657f8b1b4fb4 | https://jcenter.bintray.com/org/antlr/antlr4/4.5.3/antlr4-4.5.3.jar
8a4e4b32eedaa72976a757e12cf1dfe742725db0b7311bf176dd937ba4236384 | https://jcenter.bintray.com/org/antlr/antlr4/4.5.3/antlr4-4.5.3.pom
401877d5e70ad599e9b6cff18434ea0332f637b51f8ec68352646c836f9bb2a4 | https://jcenter.bintray.com/org/antlr/antlr4-master/4.5.3/antlr4-master-4.5.3.pom
ff513db0361fd41237bef4784968bc15aae478d4ec0a9496f811072ccaf3841d | https://jcenter.bintray.com/org/apache/apache/13/apache-13.pom
36c2f2f979ac67b450c0cb480e4e9baf6b40f3a681f22ba9692287d1139ad494 | https://jcenter.bintray.com/org/apache/apache/15/apache-15.pom
9f85ff2fd7d6cb3097aa47fb419ee7f0ebe869109f98aba9f4eca3f49e74a40e | https://jcenter.bintray.com/org/apache/apache/16/apache-16.pom
7831307285fd475bbc36b20ae38e7882f11c3153b1d5930f852d44eda8f33c17 | https://jcenter.bintray.com/org/apache/apache/18/apache-18.pom
4946e60a547c8eda69f3bc23c5b6f0dadcf8469ea49b1d1da7de34aecfcf18dd | https://jcenter.bintray.com/org/apache/apache/9/apache-9.pom
2c1542faf343185b7cab9c3d55c8ae5471d6d095d3887a4adefdbdf2984dc0b6 | https://jcenter.bintray.com/org/apache/commons/commons-compress/1.12/commons-compress-1.12.jar
b787d574c851505e76212968b9ae1641ea79804aef7f5a2cee2a01cd4055213a | https://jcenter.bintray.com/org/apache/commons/commons-compress/1.12/commons-compress-1.12.pom
cb49812dc1bfb0ea4f20f398bcae1a88c6406e213e67f7524fb10d4f8ad9347b | https://jcenter.bintray.com/org/apache/commons/commons-exec/1.3/commons-exec-1.3.jar
82827f6019c0f71bd74fba886ab337ff6da291f63df9723379a209d6ad3b44f8 | https://jcenter.bintray.com/org/apache/commons/commons-exec/1.3/commons-exec-1.3.pom
467ae650442e876867379094e7518dfdd67d22c5352ebd39808c84259e9790ba | https://jcenter.bintray.com/org/apache/commons/commons-parent/25/commons-parent-25.pom
e4d258af8b2ff4032148d415379def7870789a6003e80576f1504b10f26b4be8 | https://jcenter.bintray.com/org/apache/commons/commons-parent/32/commons-parent-32.pom
3a2e69d06d641d1f3b293126dc9e2e4ea6563bf8c36c87e0ab6fa4292d04b79c | https://jcenter.bintray.com/org/apache/commons/commons-parent/34/commons-parent-34.pom
7098a1ab8336ecd4c9dc21cbbcac869f82c66f64b8ac4f7988d41b4fcb44e49a | https://jcenter.bintray.com/org/apache/commons/commons-parent/35/commons-parent-35.pom
87cd27e1a02a5c3eb6d85059ce98696bb1b44c2b8b650f0567c86df60fa61da7 | https://jcenter.bintray.com/org/apache/commons/commons-parent/39/commons-parent-39.pom
0dffc621400d6c632f55787d996b8aeca36b30746a716e079a985f24d8074057 | https://jcenter.bintray.com/org/apache/httpcomponents/httpclient/4.5.2/httpclient-4.5.2.jar
488001ba21829a4b28b0efbed18dccb13689f58f0985453863257049f7ec19f0 | https://jcenter.bintray.com/org/apache/httpcomponents/httpclient/4.5.2/httpclient-4.5.2.pom
c03f813195e7a80e3608d0ddd8da80b21696a4c92a6a2298865bf149071551c7 | https://jcenter.bintray.com/org/apache/httpcomponents/httpclient/4.5.6/httpclient-4.5.6.jar
7efc1241e73e7fbb268bfd33242d11ebd3ca07061d7d85f2962dc32a0f0b8855 | https://jcenter.bintray.com/org/apache/httpcomponents/httpclient/4.5.6/httpclient-4.5.6.pom
1de8cba6c1e5c46b28619e335a6fb7204c352dba3e8b1cefb4b59575e2beed01 | https://jcenter.bintray.com/org/apache/httpcomponents/httpcomponents-client/4.5.2/httpcomponents-client-4.5.2.pom
b042b41f2391edb00d35f7f4e509aed2123648c1d246ce58d0f7b905c9fe1f73 | https://jcenter.bintray.com/org/apache/httpcomponents/httpcomponents-client/4.5.6/httpcomponents-client-4.5.6.pom
61e9427d4be326c307a7f16ba828d1cb3b14713c9b04fc8ba992a58f376c3136 | https://jcenter.bintray.com/org/apache/httpcomponents/httpcomponents-core/4.4.10/httpcomponents-core-4.4.10.pom
18d9243541c80848d5378bad89fccc5e1bf5c0465b2481d948b0c06851091cdc | https://jcenter.bintray.com/org/apache/httpcomponents/httpcomponents-core/4.4.5/httpcomponents-core-4.4.5.pom
caaf967d94afb21753f36082c6086206bd1f48825ff596932cceba72b65d39fa | https://jcenter.bintray.com/org/apache/httpcomponents/httpcomponents-parent/10/httpcomponents-parent-10.pom
78ba1096561957db1b55200a159b648876430342d15d461277e62360da19f6fd | https://jcenter.bintray.com/org/apache/httpcomponents/httpcore/4.4.10/httpcore-4.4.10.jar
c5c12066df2b3b88a89a2c8602b81ea9a61627e976e5129eea1899ebbaea392b | https://jcenter.bintray.com/org/apache/httpcomponents/httpcore/4.4.10/httpcore-4.4.10.pom
64d5453874cab7e40a7065cb01a9a9ca1053845a9786b478878b679e0580cec3 | https://jcenter.bintray.com/org/apache/httpcomponents/httpcore/4.4.5/httpcore-4.4.5.jar
147fa18df753534e50054d018a360f789902af1e5c24322a3f0b200d0684fed2 | https://jcenter.bintray.com/org/apache/httpcomponents/httpcore/4.4.5/httpcore-4.4.5.pom
231a3f7e4962053db2be8461d5422e68fc458a3a7dd7d8ada803a348e21f8f07 | https://jcenter.bintray.com/org/apache/httpcomponents/httpmime/4.5.2/httpmime-4.5.2.jar
004b5b6272d820029adefcaaa92186ec46a485990b54d03509e441eda85b3784 | https://jcenter.bintray.com/org/apache/httpcomponents/httpmime/4.5.2/httpmime-4.5.2.pom
0b2b1102c18d3c7e05a77214b9b7501a6f6056174ae5604e0e256776eda7553e | https://jcenter.bintray.com/org/apache/httpcomponents/httpmime/4.5.6/httpmime-4.5.6.jar
dfbfd6ffe2a784ca9817c46365aa7f8a578320b805bde39d6f55a0b09d8aa8ca | https://jcenter.bintray.com/org/apache/httpcomponents/httpmime/4.5.6/httpmime-4.5.6.pom
3d6eba428555a558de046b5d76eacc1f5a54b4f5f20b84d636ed7aff18aa48c3 | https://jcenter.bintray.com/org/apache/httpcomponents/project/7/project-7.pom
7043dee4e9e7175e93e0b36f45b1ec1ecb893c5f755667e8b916eb8dd201c6ca | https://jcenter.bintray.com/org/bouncycastle/bcpkix-jdk15on/1.56/bcpkix-jdk15on-1.56.jar
321668fc474a73140eb9cc73c779f1ebb9f60948aade3beddee082ecefcf0259 | https://jcenter.bintray.com/org/bouncycastle/bcpkix-jdk15on/1.56/bcpkix-jdk15on-1.56.pom
963e1ee14f808ffb99897d848ddcdb28fa91ddda867eb18d303e82728f878349 | https://jcenter.bintray.com/org/bouncycastle/bcprov-jdk15on/1.56/bcprov-jdk15on-1.56.jar
8fdc3336e7b01873193ba9c48b87de7d788dc0954d1eb45c322492627a4b5c6e | https://jcenter.bintray.com/org/bouncycastle/bcprov-jdk15on/1.56/bcprov-jdk15on-1.56.pom
64b02691c8b9d4e7700f8ee2e742dce7ea2c6e81e662b7522c9ee3bf568c040a | https://jcenter.bintray.com/org/checkerframework/checker-qual/2.5.2/checker-qual-2.5.2.jar
dc4cd438a36462d013c2338c8e206d102a322a00f33729e8955ee219859c9ede | https://jcenter.bintray.com/org/checkerframework/checker-qual/2.5.2/checker-qual-2.5.2.pom
6b87237de8c2e1740cf80627c7f3ce3e15de1930bb250c55a1eca94fa3e014df | https://jcenter.bintray.com/org/codehaus/codehaus-parent/4/codehaus-parent-4.pom
51d6c4e71782e85674239189499854359d380fb75e1a703756e3aaa5b98a5af0 | https://jcenter.bintray.com/org/codehaus/groovy/groovy-all/2.4.15/groovy-all-2.4.15.jar
fc0d535d7bdb7ca90562321c2e8e2a35c377f113c6dd0b2062282e1f4676367a | https://jcenter.bintray.com/org/codehaus/groovy/groovy-all/2.4.15/groovy-all-2.4.15.pom
2068320bd6bad744c3673ab048f67e30bef8f518996fa380033556600669905d | https://jcenter.bintray.com/org/codehaus/mojo/animal-sniffer-annotations/1.14/animal-sniffer-annotations-1.14.jar
1879f19a05991e3ed95910b96689333396b0c467a215dc4d1f90018404b72a26 | https://jcenter.bintray.com/org/codehaus/mojo/animal-sniffer-annotations/1.14/animal-sniffer-annotations-1.14.pom
f51550a06b1410bd4962cb0e71df0b921a60a7ef47bfa9c4825a14be72316eea | https://jcenter.bintray.com/org/codehaus/mojo/animal-sniffer-parent/1.14/animal-sniffer-parent-1.14.pom
3e395d6fbc43c09a3774cac8694ce527398305ea3fd5492d80e25af27d382a9c | https://jcenter.bintray.com/org/codehaus/mojo/mojo-parent/34/mojo-parent-34.pom
a52e6850f070dc9f7a2a51d0b25dfaafd49b0b9bf8196db6c0b3c5b7c94d8d38 | https://jcenter.bintray.com/org/glassfish/jaxb/jaxb-bom/2.2.11/jaxb-bom-2.2.11.pom
37bcaee8ebb04362c8352a5bf6221b86967ecdab5164c696b10b9a2bb587b2aa | https://jcenter.bintray.com/org/glassfish/jaxb/jaxb-core/2.2.11/jaxb-core-2.2.11.jar
ec31409f203bcabf99534f59231ec0576d875d4d4b7349b09566a7a8c8179b24 | https://jcenter.bintray.com/org/glassfish/jaxb/jaxb-core/2.2.11/jaxb-core-2.2.11.pom
a874f2351cfba8e2946be3002d10c18a6da8f21b52ba2acf52f2b85d5520ed70 | https://jcenter.bintray.com/org/glassfish/jaxb/jaxb-runtime/2.2.11/jaxb-runtime-2.2.11.jar
e5327b31b595ab8143e97836d5ccdf85feb91e7ff5666f7b26913632facca4aa | https://jcenter.bintray.com/org/glassfish/jaxb/jaxb-runtime/2.2.11/jaxb-runtime-2.2.11.pom
272a3ccad45a4511351920cd2a8633c53cab8d5220c7a92954da5526bb5eafea | https://jcenter.bintray.com/org/glassfish/jaxb/txw2/2.2.11/txw2-2.2.11.jar
8514cb724b4fca59a5cf272b632e539bd0a0f3cacf1844082d0a173a86406bd8 | https://jcenter.bintray.com/org/glassfish/jaxb/txw2/2.2.11/txw2-2.2.11.pom
66fdef91e9739348df7a096aa384a5685f4e875584cce89386a7a47251c4d8e9 | https://jcenter.bintray.com/org/hamcrest/hamcrest-core/1.3/hamcrest-core-1.3.jar
fde386a7905173a1b103de6ab820727584b50d0e32282e2797787c20a64ffa93 | https://jcenter.bintray.com/org/hamcrest/hamcrest-core/1.3/hamcrest-core-1.3.pom
70f418efbb506c5155da5f9a5a33262ea08a9e4d7fea186aa9015c41a7224ac2 | https://jcenter.bintray.com/org/hamcrest/hamcrest-integration/1.3/hamcrest-integration-1.3.jar
42f0be9bf98c12dacdcb99dd141d83d4dc5bb7c37a6f26684cd3ff2287667fba | https://jcenter.bintray.com/org/hamcrest/hamcrest-integration/1.3/hamcrest-integration-1.3.pom
711d64522f9ec410983bd310934296da134be4254a125080a0416ec178dfad1c | https://jcenter.bintray.com/org/hamcrest/hamcrest-library/1.3/hamcrest-library-1.3.jar
1ceb4bfb0f098ae29b935044b2363e11323313fe3ed2055df8b79737d5056277 | https://jcenter.bintray.com/org/hamcrest/hamcrest-library/1.3/hamcrest-library-1.3.pom
6d535f94efb663bdb682c9f27a50335394688009642ba7a9677504bc1be4129b | https://jcenter.bintray.com/org/hamcrest/hamcrest-parent/1.3/hamcrest-parent-1.3.pom
1345f11ba606d15603d6740551a8c21947c0215640770ec67271fe78bea97cf5 | https://jcenter.bintray.com/org/jdom/jdom2/2.0.6/jdom2-2.0.6.jar
47b23a79fe336b741b82434c6e049d68165256e405e75c10921fd72fa8a65d8d | https://jcenter.bintray.com/org/jdom/jdom2/2.0.6/jdom2-2.0.6.pom
ace2a10dc8e2d5fd34925ecac03e4988b2c0f851650c94b8cef49ba1bd111478 | https://jcenter.bintray.com/org/jetbrains/annotations/13.0/annotations-13.0.jar
965aeb2bedff369819bdde1bf7a0b3b89b8247dd69c88b86375d76163bb8c397 | https://jcenter.bintray.com/org/jetbrains/annotations/13.0/annotations-13.0.pom
affb7c85a3c87bdcf69ff1dbb84de11f63dc931293934bc08cd7ab18de083601 | https://jcenter.bintray.com/org/jetbrains/intellij/deps/trove4j/1.0.20181211/trove4j-1.0.20181211.jar
310a6aa2d90534c32b8f46f1fc98cd0edae95dcdfca23e2847e5efa9ae0c019a | https://jcenter.bintray.com/org/jetbrains/intellij/deps/trove4j/1.0.20181211/trove4j-1.0.20181211.pom
26d3a8cfaf833c7c463d681e60a9887dff6819d9960936317f0b615b19a11e4f | https://jcenter.bintray.com/org/jetbrains/kotlin/kotlin-android-extensions/1.3.41/kotlin-android-extensions-1.3.41.jar
d83267404f53b7d95995cfac7723991e4761e702ae41a88703b1bd202bfcfa21 | https://jcenter.bintray.com/org/jetbrains/kotlin/kotlin-android-extensions/1.3.41/kotlin-android-extensions-1.3.41.pom
980965a550c50f424a2c6306dec7d5a0ac94a21e1aa8dbe87f7224774d44113c | https://jcenter.bintray.com/org/jetbrains/kotlin/kotlin-annotation-processing-gradle/1.3.41/kotlin-annotation-processing-gradle-1.3.41.jar
f00bc1f5e8d853238d7225ef503f3cc931d91dd1b37007d360f2c2d1b1eaad27 | https://jcenter.bintray.com/org/jetbrains/kotlin/kotlin-annotation-processing-gradle/1.3.41/kotlin-annotation-processing-gradle-1.3.41.pom
602766a64424203122e9657545da958718f6dbda019081a4cd75047404d32363 | https://jcenter.bintray.com/org/jetbrains/kotlin/kotlin-build-common/1.3.41/kotlin-build-common-1.3.41.jar
fc33d0df31e9bbe6b67ff20dc211f396ac55dc350202834b85ecba0df81242e2 | https://jcenter.bintray.com/org/jetbrains/kotlin/kotlin-build-common/1.3.41/kotlin-build-common-1.3.41.pom
ea6ab03286a534ab24f123b845a107c7a53b679f6ee56bdc34b5dd1b0fd7b6f4 | https://jcenter.bintray.com/org/jetbrains/kotlin/kotlin-compiler-embeddable/1.3.41/kotlin-compiler-embeddable-1.3.41.jar
a630bdc69212fc0ac4a24059089eb246bd4f04f334a6f1e77952b373d0cdad8e | https://jcenter.bintray.com/org/jetbrains/kotlin/kotlin-compiler-embeddable/1.3.41/kotlin-compiler-embeddable-1.3.41.pom
f58cffaec052685c4b7985532c1bf52d9006b2b4ed9679d9c78df8867fc50d57 | https://jcenter.bintray.com/org/jetbrains/kotlin/kotlin-compiler-runner/1.3.41/kotlin-compiler-runner-1.3.41.jar
83918960ee396c0e38132552c48cac0aa3f542ac09ffa974d6f106b5ddf07647 | https://jcenter.bintray.com/org/jetbrains/kotlin/kotlin-compiler-runner/1.3.41/kotlin-compiler-runner-1.3.41.pom
d59d7f617feef6beb880bc9aa6d4c838ebc6f15317e5a98c427815cce8ecfe84 | https://jcenter.bintray.com/org/jetbrains/kotlin/kotlin-daemon-client/1.3.41/kotlin-daemon-client-1.3.41.jar
e05bebcf2d42073d145e12df19de3163320fbf876986bb53df82b7478679455b | https://jcenter.bintray.com/org/jetbrains/kotlin/kotlin-daemon-client/1.3.41/kotlin-daemon-client-1.3.41.pom
380b16b2ab673bb9d9341142b51484f97e6614952cc530a48ce34583952ab84f | https://jcenter.bintray.com/org/jetbrains/kotlin/kotlin-gradle-plugin/1.3.41/kotlin-gradle-plugin-1.3.41.jar
98954d5331ff118a5f2492db6bc73fe947f4a3225c8abd8e106647b5fa17b3e8 | https://jcenter.bintray.com/org/jetbrains/kotlin/kotlin-gradle-plugin/1.3.41/kotlin-gradle-plugin-1.3.41.pom
57b0e2951fde88baf8ffb92d72c5682c101a7c2c12c6c501a5b47f88f5b08696 | https://jcenter.bintray.com/org/jetbrains/kotlin/kotlin-gradle-plugin-api/1.3.41/kotlin-gradle-plugin-api-1.3.41.jar
dc338b55085bfc4cc2a98dc83c8365dbee976b9d9134ca845d42d0a3d4767937 | https://jcenter.bintray.com/org/jetbrains/kotlin/kotlin-gradle-plugin-api/1.3.41/kotlin-gradle-plugin-api-1.3.41.pom
8a703d706c44996993f9df34b916162b99b81417f7f9d351ca8d205f0325936d | https://jcenter.bintray.com/org/jetbrains/kotlin/kotlin-gradle-plugin-model/1.3.41/kotlin-gradle-plugin-model-1.3.41.jar
8763bd09455cecf1c9fabea3653bd2ac17bf31a1291a153fefca8e4f28de9043 | https://jcenter.bintray.com/org/jetbrains/kotlin/kotlin-gradle-plugin-model/1.3.41/kotlin-gradle-plugin-model-1.3.41.pom
4f48a872bad6e4d9c053f4ad610d11e4012ad7e58dc19a03dd5eb811f36069dd | https://jcenter.bintray.com/org/jetbrains/kotlin/kotlin-reflect/1.2.0/kotlin-reflect-1.2.0.jar
f35215da1bed69e3d60735d76221d7012cd1a5bc0a30f6f7421719ada463b4dd | https://jcenter.bintray.com/org/jetbrains/kotlin/kotlin-reflect/1.2.0/kotlin-reflect-1.2.0.pom
a0172daf57e511e8e0df9251b508db8aa6b885cdf0c5849addc9b840db4814f0 | https://jcenter.bintray.com/org/jetbrains/kotlin/kotlin-reflect/1.3.31/kotlin-reflect-1.3.31.jar
521ea7a6923dba027d808da42cb789da43b332988652f209f45ae85b582abaac | https://jcenter.bintray.com/org/jetbrains/kotlin/kotlin-reflect/1.3.31/kotlin-reflect-1.3.31.pom
01d469878c6853a607baaadf869c7474b971abe6dd2cb74f244bea0ffb453c76 | https://jcenter.bintray.com/org/jetbrains/kotlin/kotlin-reflect/1.3.41/kotlin-reflect-1.3.41.jar
4d0e8480bf227cd23d21d245dc9fe47e92056af5a6f367bc886bf43278c44146 | https://jcenter.bintray.com/org/jetbrains/kotlin/kotlin-reflect/1.3.41/kotlin-reflect-1.3.41.pom
fe9033bf39eb38d3daed1649f54b3321478901b9891c24482a4a06603d5b137f | https://jcenter.bintray.com/org/jetbrains/kotlin/kotlin-scripting-common/1.3.41/kotlin-scripting-common-1.3.41.jar
21253e34109f982b0b1586367e47b5c91bc630f5071e77f5bf3228bb4d4d86de | https://jcenter.bintray.com/org/jetbrains/kotlin/kotlin-scripting-common/1.3.41/kotlin-scripting-common-1.3.41.pom
c2da2d19f569e8369c2f55affa0dee5f50771bc3685697ee948ee29a16d0c3c1 | https://jcenter.bintray.com/org/jetbrains/kotlin/kotlin-scripting-compiler-embeddable/1.3.41/kotlin-scripting-compiler-embeddable-1.3.41.jar
024b8b34dbbda4c657bf4c9f68acb45174f9350d4c6542278855124442d491d3 | https://jcenter.bintray.com/org/jetbrains/kotlin/kotlin-scripting-compiler-embeddable/1.3.41/kotlin-scripting-compiler-embeddable-1.3.41.pom
854c39cdd705be01956439ae70f44a785cd0ba66388299f98bc0af75db328f29 | https://jcenter.bintray.com/org/jetbrains/kotlin/kotlin-scripting-compiler-impl-embeddable/1.3.41/kotlin-scripting-compiler-impl-embeddable-1.3.41.jar
bd29d1efdfcd51ae20d252ca66f2ea84cf3671ce323cd25518ff44a52c9a5dc1 | https://jcenter.bintray.com/org/jetbrains/kotlin/kotlin-scripting-compiler-impl-embeddable/1.3.41/kotlin-scripting-compiler-impl-embeddable-1.3.41.pom
50ad890f1dfa33e9cdeba550fab2e98e88e6f03624461cd11c7f5eb4a41de7a1 | https://jcenter.bintray.com/org/jetbrains/kotlin/kotlin-scripting-jvm/1.3.41/kotlin-scripting-jvm-1.3.41.jar
fda06e8c1b1c47e720a80176f2269e43fc95b849045bf4006b7003c964f68a49 | https://jcenter.bintray.com/org/jetbrains/kotlin/kotlin-scripting-jvm/1.3.41/kotlin-scripting-jvm-1.3.41.pom
ac184612f258b460b5af4ca47f6bee0bab20a46fa818b86697ba41ef29626a31 | https://jcenter.bintray.com/org/jetbrains/kotlin/kotlin-script-runtime/1.3.41/kotlin-script-runtime-1.3.41.jar
9bd39a256bdd9f7a8689f095c7eff85f8504ae03789e12cf20e6bbc689baefd1 | https://jcenter.bintray.com/org/jetbrains/kotlin/kotlin-script-runtime/1.3.41/kotlin-script-runtime-1.3.41.pom
358700f7a5b932bce30ebb0010641a9cade4b8499a60845717b2e22a39697f92 | https://jcenter.bintray.com/org/jetbrains/kotlin/kotlin-stdlib/1.1.60/kotlin-stdlib-1.1.60.pom
ca9778da4afbcd421b09384b257c9de47f610aec5c9165e0209228d25a337a20 | https://jcenter.bintray.com/org/jetbrains/kotlin/kotlin-stdlib/1.2.0/kotlin-stdlib-1.2.0.pom
4c895c270b87f5fec2a2796e1d89c15407ee821de961527c28588bb46afbc68b | https://jcenter.bintray.com/org/jetbrains/kotlin/kotlin-stdlib/1.2.71/kotlin-stdlib-1.2.71.jar
713db77c9a0c47a670f95c23b0051b9bd942b3a0ea1f6cc9bb5d9eaba1fa75ae | https://jcenter.bintray.com/org/jetbrains/kotlin/kotlin-stdlib/1.2.71/kotlin-stdlib-1.2.71.pom
f38c84326543e66ed4895b20fb3ea0fca527fd5a040e1f49d0946ecf3d2b3b23 | https://jcenter.bintray.com/org/jetbrains/kotlin/kotlin-stdlib/1.3.31/kotlin-stdlib-1.3.31.jar
938182555f87aabdaabfa7ea22f29249a801d0882587fdb36efd6b69ab6d9483 | https://jcenter.bintray.com/org/jetbrains/kotlin/kotlin-stdlib/1.3.31/kotlin-stdlib-1.3.31.pom
6ea3d0921b26919b286f05cbdb906266666a36f9a7c096197114f7495708ffbc | https://jcenter.bintray.com/org/jetbrains/kotlin/kotlin-stdlib/1.3.41/kotlin-stdlib-1.3.41.jar
785b5b66f1146317d5ed5b18c8e0c10f83cd5c909434c799a4da9823f028cd63 | https://jcenter.bintray.com/org/jetbrains/kotlin/kotlin-stdlib/1.3.41/kotlin-stdlib-1.3.41.pom
e6f05746ee0366d0b52825a090fac474dcf44082c9083bbb205bd16976488d6c | https://jcenter.bintray.com/org/jetbrains/kotlin/kotlin-stdlib/1.3.50/kotlin-stdlib-1.3.50.jar
704fd78960ae046428f69bcd5b951c122e4c180c9400238a866e12cb18494a61 | https://jcenter.bintray.com/org/jetbrains/kotlin/kotlin-stdlib/1.3.50/kotlin-stdlib-1.3.50.pom
63999687ff2fce8a592dd180ffbbf8f1d21c26b4044c55cdc74ff3cf3b3cf328 | https://jcenter.bintray.com/org/jetbrains/kotlin/kotlin-stdlib-common/1.2.71/kotlin-stdlib-common-1.2.71.jar
a8c3ed5892032b9e9395524a4da2953975c99628b932df3336b25d546e7c6693 | https://jcenter.bintray.com/org/jetbrains/kotlin/kotlin-stdlib-common/1.2.71/kotlin-stdlib-common-1.2.71.pom
d6e9c54c1e6c4df21be9395de558665544c6bdc8f8076ea7518f089f82cd34fc | https://jcenter.bintray.com/org/jetbrains/kotlin/kotlin-stdlib-common/1.3.31/kotlin-stdlib-common-1.3.31.jar
43f118ba3aa72a531d66d64cdd4223fa612b7fac57030ce9148ffb4a55cc3afc | https://jcenter.bintray.com/org/jetbrains/kotlin/kotlin-stdlib-common/1.3.31/kotlin-stdlib-common-1.3.31.pom
6c91dea17d7dce5f0b550c3de3305767e5fb46247b6d1eb7eca0ca1fe18458de | https://jcenter.bintray.com/org/jetbrains/kotlin/kotlin-stdlib-common/1.3.41/kotlin-stdlib-common-1.3.41.jar
d2e537cd1f7705276242d8cc903a0286b6dc86b41b6e728e967ef719022f2e15 | https://jcenter.bintray.com/org/jetbrains/kotlin/kotlin-stdlib-common/1.3.41/kotlin-stdlib-common-1.3.41.pom
8ce678e88e4ba018b66dacecf952471e4d7dfee156a8a819760a5a5ff29d323c | https://jcenter.bintray.com/org/jetbrains/kotlin/kotlin-stdlib-common/1.3.50/kotlin-stdlib-common-1.3.50.jar
b6396fe802d7bc76a381485e266cb975f3b2f2d3dd9bf7213aab6ca27a561fc1 | https://jcenter.bintray.com/org/jetbrains/kotlin/kotlin-stdlib-common/1.3.50/kotlin-stdlib-common-1.3.50.pom
b136bd61b240e07d4d92ce00d3bd1dbf584400a7bf5f220c2f3cd22446858082 | https://jcenter.bintray.com/org/jetbrains/kotlin/kotlin-stdlib-jdk7/1.2.71/kotlin-stdlib-jdk7-1.2.71.jar
941426d95526c828e794791a1da889b62f1f29e0220cf2f2e8dc09b6197080b3 | https://jcenter.bintray.com/org/jetbrains/kotlin/kotlin-stdlib-jdk7/1.2.71/kotlin-stdlib-jdk7-1.2.71.pom
dbf77e6a5626d941450fdc59cbfe24165858403c12789749a2497265269859a3 | https://jcenter.bintray.com/org/jetbrains/kotlin/kotlin-stdlib-jdk7/1.3.31/kotlin-stdlib-jdk7-1.3.31.jar
7c9af71bea2bd234d822216cf826ac3960a16a157e69669e5788485ff2800f68 | https://jcenter.bintray.com/org/jetbrains/kotlin/kotlin-stdlib-jdk7/1.3.31/kotlin-stdlib-jdk7-1.3.31.pom
ac3c8abf47790b64b4f7e2509a53f0c145e061ac1612a597520535d199946ea9 | https://jcenter.bintray.com/org/jetbrains/kotlin/kotlin-stdlib-jdk8/1.2.71/kotlin-stdlib-jdk8-1.2.71.jar
845c33f0e9ed5f66bca2d7ed39873f3e75920c5e33de984c25c48760f79594b3 | https://jcenter.bintray.com/org/jetbrains/kotlin/kotlin-stdlib-jdk8/1.2.71/kotlin-stdlib-jdk8-1.2.71.pom
ad6acd219b468a532ac3b3c5aacbfd5db02d0ffcf967e2113e4677e2429490f6 | https://jcenter.bintray.com/org/jetbrains/kotlin/kotlin-stdlib-jdk8/1.3.31/kotlin-stdlib-jdk8-1.3.31.jar
5cb7c7867f97ce48ef211c79f975b77de5724ac13e0ae27c1da2613929897427 | https://jcenter.bintray.com/org/jetbrains/kotlin/kotlin-stdlib-jdk8/1.3.31/kotlin-stdlib-jdk8-1.3.31.pom
8f52859322d3c8e38c770ae31a4df9b2896df487fce608f9aff3b640a4026c3c | https://jcenter.bintray.com/org/jetbrains/kotlinx/kotlinx-coroutines-android/1.3.2/kotlinx-coroutines-android-1.3.2.jar
7f966ea79ea96db23ef9f52e9670166ea9c6f1080219fc27f27362f87fc2db80 | https://jcenter.bintray.com/org/jetbrains/kotlinx/kotlinx-coroutines-android/1.3.2/kotlinx-coroutines-android-1.3.2.pom
ac423f8a0aa4b4e74529696ff82c0171f81a8c8ab182a1965dff25e69c1f7844 | https://jcenter.bintray.com/org/jetbrains/kotlinx/kotlinx-coroutines-core/1.1.1/kotlinx-coroutines-core-1.1.1.jar
82fe57e97f3f91561fe29bca615d45908ecb0ddea3e8d2cb0affd06de964872f | https://jcenter.bintray.com/org/jetbrains/kotlinx/kotlinx-coroutines-core/1.1.1/kotlinx-coroutines-core-1.1.1.pom
9509e8ceba3d4917ec9bbdb74abcfa098d54ab4b86a86b33655ea9837193031d | https://jcenter.bintray.com/org/jetbrains/kotlinx/kotlinx-coroutines-core/1.3.2/kotlinx-coroutines-core-1.3.2.jar
5756b5a320d56c2b500446ea13798ec064eddf759f3da18cd3e1d1691a6b6a87 | https://jcenter.bintray.com/org/jetbrains/kotlinx/kotlinx-coroutines-core/1.3.2/kotlinx-coroutines-core-1.3.2.pom
1917871c8deb468307a584680c87a44572f5a8b0b98c6d397fc0f5f86596dbe7 | https://jcenter.bintray.com/org/jetbrains/trove4j/trove4j/20160824/trove4j-20160824.jar
5c415a9d8585200de4be1947e15291cc79f599b06249375f5c9ea22d4b2d090f | https://jcenter.bintray.com/org/jetbrains/trove4j/trove4j/20160824/trove4j-20160824.pom
a31ff7d77163c0deb09e7fee59ad35ae44c2cee2cc8552a116ccd1583d813fb4 | https://jcenter.bintray.com/org/jvnet/staxex/stax-ex/1.7.7/stax-ex-1.7.7.jar
27cb450b6c367a00bd8362519907f84defac7b12086c64d4d6e97e33ab873ead | https://jcenter.bintray.com/org/jvnet/staxex/stax-ex/1.7.7/stax-ex-1.7.7.pom
dd8971c74a4e697899a8e95caae4ea8760ea6c486dc6b97b1795e75760420461 | https://jcenter.bintray.com/org/ow2/asm/asm/6.0/asm-6.0.jar
c2bc497e197112e699085426bbb45b1ab0be8002da68267a3b1f450a0312c32e | https://jcenter.bintray.com/org/ow2/asm/asm/6.0/asm-6.0.pom
2f1a6387219c3a6cc4856481f221b03bd9f2408a326d416af09af5d6f608c1f4 | https://jcenter.bintray.com/org/ow2/asm/asm-analysis/6.0/asm-analysis-6.0.jar
d3aaf42e40e3e24aabda53b5de4de5e17cb78e06549bf37312dca6c77e251054 | https://jcenter.bintray.com/org/ow2/asm/asm-analysis/6.0/asm-analysis-6.0.pom
f1bce5c648a96a017bdcd01fe5d59af9845297fd7b79b81c015a6fbbd9719abf | https://jcenter.bintray.com/org/ow2/asm/asm-commons/6.0/asm-commons-6.0.jar
90f4f29473afb957229016eb5741954976cc1b67bc049b3981c0d1e653ad5cdd | https://jcenter.bintray.com/org/ow2/asm/asm-commons/6.0/asm-commons-6.0.pom
791d064bb9ecc9a46d43bc9efecd74c91464dfc451f321b802d2261e2ccd7d14 | https://jcenter.bintray.com/org/ow2/asm/asm-parent/6.0/asm-parent-6.0.pom
887998fb69727c8759e4d253f856822801e33f9fd4caa566b3ac58ee92106215 | https://jcenter.bintray.com/org/ow2/asm/asm-tree/6.0/asm-tree-6.0.jar
36887e0d7fdb185a92378a38ea45e596a97f10f385c5d050eb6252454ee701b4 | https://jcenter.bintray.com/org/ow2/asm/asm-tree/6.0/asm-tree-6.0.pom
356afebdb0f870175262e5188f8709a3b17aa2a5a6a4b0340b04d4b449bca5f6 | https://jcenter.bintray.com/org/ow2/asm/asm-util/6.0/asm-util-6.0.jar
3cdfc61f988d167b97503419da82a5808b20f4205aeb46c394e6e7ffd3211f12 | https://jcenter.bintray.com/org/ow2/asm/asm-util/6.0/asm-util-6.0.pom
51215c67d2c068d8b7d2f6f80f51372a098075deccc448d4bdd7b987ba8328fb | https://jcenter.bintray.com/org/ow2/ow2/1.3/ow2-1.3.pom
b51f8867c92b6a722499557fc3a1fdea77bdf9ef574722fe90ce436a29559454 | https://jcenter.bintray.com/org/sonatype/oss/oss-parent/7/oss-parent-7.pom
fb40265f982548212ff82e362e59732b2187ec6f0d80182885c14ef1f982827a | https://jcenter.bintray.com/org/sonatype/oss/oss-parent/9/oss-parent-9.pom
d4e441fda1b3ad70b266793cc4b6d02bec8720875b796fadc063fc713f948549 | https://jcenter.bintray.com/org/yaml/snakeyaml/1.24/snakeyaml-1.24-android.jar
174d423722256823edbe2af8d7e3385c4645cf72382a22da0485b3b674394f37 | https://jcenter.bintray.com/org/yaml/snakeyaml/1.24/snakeyaml-1.24.pom
3a616a32f433e9e23f556b38575c31b013613d3ae85206263b7625fe1f4c151a | https://maven.google.com/android/arch/core/common/1.1.1/common-1.1.1.jar
eb91acbeeaccc7fa382f88b02a22d5eddf314665bbb8fed090c067b703f50a5c | https://maven.google.com/android/arch/core/common/1.1.1/common-1.1.1.pom
c3215aa5873311b3f88a6f4e4a3c25ad89971bc127de8c3e1291c57f93a05c39 | https://maven.google.com/android/arch/core/runtime/1.1.1/runtime-1.1.1.aar
30453099142d085d801460a20d7e02a3f4d3004238879eaeb62083f59f1193a9 | https://maven.google.com/android/arch/core/runtime/1.1.1/runtime-1.1.1.pom
8d378e88ebd5189e09eef623414812c868fd90aa519d6160e2311fb8b81cff56 | https://maven.google.com/android/arch/lifecycle/common/1.1.1/common-1.1.1.jar
1742e74f222d06ea26f811191adf18e4cb74213b785e3f5d0d930224e83b4e82 | https://maven.google.com/android/arch/lifecycle/common/1.1.1/common-1.1.1.pom
7078b5c8ccb94203df9cc2a463c69cf0021596e6cf966d78fbfd697aaafe0630 | https://maven.google.com/android/arch/lifecycle/common-java8/1.1.1/common-java8-1.1.1.jar
24ae9a6ad8234173ba20eef298fbd56ed3dff618698cedbbe6b0515d24862d0a | https://maven.google.com/android/arch/lifecycle/common-java8/1.1.1/common-java8-1.1.1.pom
429426b2feec2245ffc5e75b3b5309bedb36159cf06dc71843ae43526ac289b6 | https://maven.google.com/android/arch/lifecycle/extensions/1.1.1/extensions-1.1.1.aar
e7289037e703c2608f46a727deab8937a312a922537f6d9bdfba5a56cd8da50a | https://maven.google.com/android/arch/lifecycle/extensions/1.1.1/extensions-1.1.1.pom
50ab0490c1ff1a7cfb4e554032998b080888946d0dd424f39900efc4a1bcd750 | https://maven.google.com/android/arch/lifecycle/livedata/1.1.1/livedata-1.1.1.aar
e8db306738739a616a74c38533a91cc066ee194fd45f492f188164e6cb1b856e | https://maven.google.com/android/arch/lifecycle/livedata/1.1.1/livedata-1.1.1.pom
d6fdd8b985d6178d7ea2f16986a24e83f1bee936b74d43167c69e08d3cc12c50 | https://maven.google.com/android/arch/lifecycle/livedata-core/1.1.1/livedata-core-1.1.1.aar
67a11cd85fd5c96ecdb84538e1eb58d7be59200e7d36d99943f31ecb514fe2a1 | https://maven.google.com/android/arch/lifecycle/livedata-core/1.1.1/livedata-core-1.1.1.pom
c4e4be66c1b2f0abec593571454e1de14013f7e0f96bf2a9f212931a48cae550 | https://maven.google.com/android/arch/lifecycle/runtime/1.1.1/runtime-1.1.1.aar
c7a7d3c2a9d6c21d8b6d470933b9472c733a4799b3ff702081b608adf1c7e592 | https://maven.google.com/android/arch/lifecycle/runtime/1.1.1/runtime-1.1.1.pom
7de29cfaba77d6b5d5be234c57f6812d0150d087e63941af22ba1d1f8e2bc96a | https://maven.google.com/android/arch/lifecycle/viewmodel/1.1.1/viewmodel-1.1.1.aar
deae2518ee1d17db319fbaf4055e32d591d58569eb9ccad53d8d323cf1840555 | https://maven.google.com/android/arch/lifecycle/viewmodel/1.1.1/viewmodel-1.1.1.pom
0baae9755f7caf52aa80cd04324b91ba93af55d4d1d17dcc9a7b53d99ef7c016 | https://maven.google.com/androidx/annotation/annotation/1.0.0/annotation-1.0.0.jar
a179c12db43d9c0300c9db63f4811db496504be5401b951d422b78490ad1e5b4 | https://maven.google.com/androidx/annotation/annotation/1.0.0/annotation-1.0.0.pom
52886c0ef6cfa492d07b40c3952201d6d2f0cfc680144fbefc69d2d5cb786c25 | https://maven.google.com/androidx/databinding/databinding-common/3.4.2/databinding-common-3.4.2.jar
fb5c804e2d81186e9e63e45b7e97eec54aa6f5d502b763abfbb0c57b62b86b4c | https://maven.google.com/androidx/databinding/databinding-common/3.4.2/databinding-common-3.4.2.pom
770b6a82da0684f93d037ed5d241248cb25862ed14ecd7d9ec8c756153266051 | https://maven.google.com/androidx/databinding/databinding-compiler-common/3.4.2/databinding-compiler-common-3.4.2.jar
6082c0a366fac7506c65d276ecbb25b3a053428a4c1f534cd2568c1f12f23e52 | https://maven.google.com/androidx/databinding/databinding-compiler-common/3.4.2/databinding-compiler-common-3.4.2.pom
7bad7a188804adea6fa1f35d5ef99b705f20bd93ecadde484760ff86b535fefc | https://maven.google.com/androidx/lifecycle/lifecycle-common/2.0.0/lifecycle-common-2.0.0.jar
04d525073469214d0c99e81aaa875dd548ba32b82945abd8326bc50229df700d | https://maven.google.com/androidx/lifecycle/lifecycle-common/2.0.0/lifecycle-common-2.0.0.pom
fda5a08856ec82fc05e4dc37bd4eea93c9d02c231fd828d6b8ce2c6a42f79271 | https://maven.google.com/androidx/test/core/1.1.0/core-1.1.0.aar
8da5bb4dfb16eef6f181394875f19eda1b967006d55e116d89edfffdabbdfbb6 | https://maven.google.com/androidx/test/core/1.1.0/core-1.1.0.pom
af9c385fb753e4ee9f7def800dbbc4a25841bec95727e3ef30e9d04d76b73fe9 | https://maven.google.com/androidx/test/espresso/espresso-core/3.1.0/espresso-core-3.1.0.aar
3083aa9b88cea441ac67eb8336e0a48549d0729543325f1c01cb5b709213b849 | https://maven.google.com/androidx/test/espresso/espresso-core/3.1.0/espresso-core-3.1.0.pom
c1a6a7add4f5d51627539fb8875a6cc3285d51638f6d638ee32f58254861f482 | https://maven.google.com/androidx/test/espresso/espresso-idling-resource/3.1.0/espresso-idling-resource-3.1.0.aar
5358b36808107018c01956636c602ab8c33ad4534eee89f8710449d5ad19a980 | https://maven.google.com/androidx/test/espresso/espresso-idling-resource/3.1.0/espresso-idling-resource-3.1.0.pom
8d4733213eeb8d071f969ea5b04f6559dc4e180cdc6fa9254aacdc14a3d3f4b7 | https://maven.google.com/androidx/test/ext/junit/1.1.0/junit-1.1.0.aar
419d39993f070e881b610787b79780b85d05697ce45667b4a49b671ec12382ca | https://maven.google.com/androidx/test/ext/junit/1.1.0/junit-1.1.0.pom
f559f4ebbb0a62994991b02f1297da654cf1286f9877ad3310ce068c67fea03a | https://maven.google.com/androidx/test/monitor/1.1.0/monitor-1.1.0.pom
ecbc74d5eb4a004a676cc26b550ae94bd685a9088b84f6eea42bf320558af237 | https://maven.google.com/androidx/test/monitor/1.1.1/monitor-1.1.1.aar
31b3930c47a3890ab0071ae16f0cc258bff2f6c7ee33f476e8e994934da41dbc | https://maven.google.com/androidx/test/monitor/1.1.1/monitor-1.1.1.pom
0c5c87df67b358c1a17765357138ea1d4bb58c61159ae635b4cb4dcaa3bb5986 | https://maven.google.com/androidx/test/rules/1.1.0/rules-1.1.0.aar
d263d896ba276dcaf2e182a66ce65fb23a2636a008c61d0b28178cffb330c323 | https://maven.google.com/androidx/test/rules/1.1.0/rules-1.1.0.pom
80ac63609299116f4c1ffa5e206eb75eeac7006013880b47e5b09691a89b4045 | https://maven.google.com/androidx/test/runner/1.1.0/runner-1.1.0.aar
7d4e4bd35a1e8a18b3c87765866703c4497fef2254f210c5dfea3373d0d4d59c | https://maven.google.com/androidx/test/runner/1.1.0/runner-1.1.0.pom
5e4f3b90995be63f3c8eeecce120c588a98c6aad3b54f60ad4c80b5418c4b012 | https://maven.google.com/com/android/databinding/baseLibrary/3.4.2/baseLibrary-3.4.2.jar
63da0e18ab10800d448b0d8ab2171bf9a2e273d06300a7c79fd39d7fa6effee1 | https://maven.google.com/com/android/databinding/baseLibrary/3.4.2/baseLibrary-3.4.2.pom
271ecbc906cda8dcd9e655ba0473129c3408a4189c806f616c378e6fd18fb3b7 | https://maven.google.com/com/android/support/animated-vector-drawable/28.0.0/animated-vector-drawable-28.0.0.aar
d4783f9cce5b193cb59486fa9fd9f06e828fe4d2d9a5744fab372b9a4a95ecca | https://maven.google.com/com/android/support/animated-vector-drawable/28.0.0/animated-vector-drawable-28.0.0.pom
a3a8e5230359746ed91801579b5fbe4668e3b1c4e6a14c7d67c8f58cb0311752 | https://maven.google.com/com/android/support/appcompat-v7/28.0.0/appcompat-v7-28.0.0.aar
d9f2abe237eab1b651694c0d292dea9ec5b341ae70bfaafffbbb5d46b78c5e17 | https://maven.google.com/com/android/support/appcompat-v7/28.0.0/appcompat-v7-28.0.0.pom
115bde87721f7334579b0c735f60dd7c98af1bb7f34010c5b0553b95dc351aa2 | https://maven.google.com/com/android/support/asynclayoutinflater/28.0.0/asynclayoutinflater-28.0.0.aar
790f1d0ca7c1a65d5afb40baf5b5423fa3163f6f90a47f3193ae0c8bb11c6e78 | https://maven.google.com/com/android/support/asynclayoutinflater/28.0.0/asynclayoutinflater-28.0.0.pom
bc9e6b0e06ce1205f1db34f0e6193019613d19cfeb54cdccea722340d1c60f26 | https://maven.google.com/com/android/support/cardview-v7/28.0.0/cardview-v7-28.0.0.aar
887ea96fc365743d8735b0446df3fbe77eb5a2e203acab1423346aa3319d8395 | https://maven.google.com/com/android/support/cardview-v7/28.0.0/cardview-v7-28.0.0.pom
93c258c8a09f531a267653829742c0f8f6da0e348b11cb8655b0855628f2d4f0 | https://maven.google.com/com/android/support/collections/28.0.0/collections-28.0.0.jar
f6c4146b8b2029e52971402d1c29ed59d2a98b4fab33ef8e6f44233ac0cf27ba | https://maven.google.com/com/android/support/collections/28.0.0/collections-28.0.0.pom
27b4e5c0b80d3ff8b92f4c93b3b4d3ecf16c01589f4cdf70ca7cf64cb42d8122 | https://maven.google.com/com/android/support/constraint/constraint-layout/1.1.3/constraint-layout-1.1.3.aar
d48935ae1641774e03ce24b0b3f7aeee66931a1e5d9ad4d47b5f93d237ea07fb | https://maven.google.com/com/android/support/constraint/constraint-layout/1.1.3/constraint-layout-1.1.3.pom
2cafbe356f71c208013d021f32943904798cd6459e5107f9fe27000eb5bc2aef | https://maven.google.com/com/android/support/constraint/constraint-layout-solver/1.1.3/constraint-layout-solver-1.1.3.jar
47be4ebd35a100945bac20b2efba158fe032520229a73bc060ac57986d132dfa | https://maven.google.com/com/android/support/constraint/constraint-layout-solver/1.1.3/constraint-layout-solver-1.1.3.pom
9dfacd80423dc979048fbaed83c0ee543c46259feb2417377e79a656888d3892 | https://maven.google.com/com/android/support/coordinatorlayout/28.0.0/coordinatorlayout-28.0.0.aar
cb83674d682f81daf7b2d43e965a18b83ef4f5bb02a69d14bb20175753361a4f | https://maven.google.com/com/android/support/coordinatorlayout/28.0.0/coordinatorlayout-28.0.0.pom
87feffe742b8d62ca8a9833abe564838bf6a672e31c7ad1306ec4006adf90d21 | https://maven.google.com/com/android/support/cursoradapter/28.0.0/cursoradapter-28.0.0.aar
5727103ce28357bce8f74655c0994508d55d060f9ec6dafba0103e7fe55f275b | https://maven.google.com/com/android/support/cursoradapter/28.0.0/cursoradapter-28.0.0.pom
98db03845f994e08248bf701c1ff0ccaa12e70f94251ec9272900f0f694e072b | https://maven.google.com/com/android/support/customview/28.0.0/customview-28.0.0.aar
187c2729dfd51ef8db5963598d14da67bad5ceb4ea5252f382044249327010e5 | https://maven.google.com/com/android/support/customview/28.0.0/customview-28.0.0.pom
7874ad1904eedc74aa41cffffb7f759d8990056f3bbbc9264911651c67c42f5f | https://maven.google.com/com/android/support/design/28.0.0/design-28.0.0.aar
ba16a815266a3b5ce69d57e4c40ba7eb22ee91b8016f2fa3a9d73bd6917e31b4 | https://maven.google.com/com/android/support/design/28.0.0/design-28.0.0.pom
47cdcd3e9302b7b064923f05487a5c03babbd9bbda4726b71e97791fab5d4779 | https://maven.google.com/com/android/support/documentfile/28.0.0/documentfile-28.0.0.aar
5ffda693e34d152463f8a9a6c00407fb11747a2271c278e082a287abad3f9cba | https://maven.google.com/com/android/support/documentfile/28.0.0/documentfile-28.0.0.pom
8f6809afae4793550c37461c9810e954ae6a23dbb4d23e5333bf18148df1150a | https://maven.google.com/com/android/support/drawerlayout/28.0.0/drawerlayout-28.0.0.aar
424f2d0b4a3ac46e0ad5349192ad0ecdc0bfcb10ed91767a08230cd16a3cfe36 | https://maven.google.com/com/android/support/drawerlayout/28.0.0/drawerlayout-28.0.0.pom
7bc7ee86a0db39a4b51956f3e89842d2bd962118d57d779eb6ed6b34ba0677ea | https://maven.google.com/com/android/support/interpolator/28.0.0/interpolator-28.0.0.aar
296b5f5eaa5cb38f67bca092aaf56bf6d23a13aa07cd81a377f861f52d609f9b | https://maven.google.com/com/android/support/interpolator/28.0.0/interpolator-28.0.0.pom
920b85efd72dc33e915b0f88a883fe73b88483c6df8751a741e17611f2460341 | https://maven.google.com/com/android/support/loader/28.0.0/loader-28.0.0.aar
9a9bad607f4b946d1503fe9b751af156da361e642e86f4fb5355b89b9557e8df | https://maven.google.com/com/android/support/loader/28.0.0/loader-28.0.0.pom
d287c823af5fdde72c099fcfc5f630efe9687af7a914343ae6fd92de32c8a806 | https://maven.google.com/com/android/support/localbroadcastmanager/28.0.0/localbroadcastmanager-28.0.0.aar
351a941335421113dff16b1ff9d4618bbcb093fd1508fc8639f18c5533313091 | https://maven.google.com/com/android/support/localbroadcastmanager/28.0.0/localbroadcastmanager-28.0.0.pom
317202dddb953d152d0677dbd8bb3b9d8ef8dcd0bdee0da4f40c98826e4960e6 | https://maven.google.com/com/android/support/palette-v7/28.0.0/palette-v7-28.0.0.aar
b609f2c1a2fb3edc2f9ed02214660c90e16103d992307ae531e2a1a5bae82138 | https://maven.google.com/com/android/support/palette-v7/28.0.0/palette-v7-28.0.0.pom
75eabe936d1fc3b178450a554c4d433466036f2be6d6dccdf971eac9590fdbf5 | https://maven.google.com/com/android/support/preference-v7/28.0.0/preference-v7-28.0.0.aar
3c09d39caf1c2b61877d9da5df6fc158bd28a4cc924db58e1936c8fef16ad835 | https://maven.google.com/com/android/support/preference-v7/28.0.0/preference-v7-28.0.0.pom
4be8a812d73e4a80e35b91ceae127def3f0bb9726bf3bc439aa0cc81503f5728 | https://maven.google.com/com/android/support/print/28.0.0/print-28.0.0.aar
e15dd914e64f5cfcbd91aeb1b921fd6ead39c21926e171a4955dd12c849c6e78 | https://maven.google.com/com/android/support/print/28.0.0/print-28.0.0.pom
eb296414c1f6d4c7b522f69fe50588ea85297855db0e7806c24eb4f75409587d | https://maven.google.com/com/android/support/recyclerview-v7/28.0.0/recyclerview-v7-28.0.0.aar
3b280edfcf646b1f51256b2b6b581d8b0194514fd248666c3dfdc0a04edb8686 | https://maven.google.com/com/android/support/recyclerview-v7/28.0.0/recyclerview-v7-28.0.0.pom
d1d234f66a1b36a9aee9b94fa6c66f97128c0828078c8e889e9037ec898cd600 | https://maven.google.com/com/android/support/slidingpanelayout/28.0.0/slidingpanelayout-28.0.0.aar
be47ac0d8fd8bdd783071596c5ea271362484752d282fb8c3421d1853ad02619 | https://maven.google.com/com/android/support/slidingpanelayout/28.0.0/slidingpanelayout-28.0.0.pom
3eae72fcf02a175efa1377886e6500e6147f92104ff43ee92b9b69d59357b90d | https://maven.google.com/com/android/support/support-annotations/26.1.0/support-annotations-26.1.0.pom
5d5b9414f02d3fa0ee7526b8d5ddae0da67c8ecc8c4d63ffa6cf91488a93b927 | https://maven.google.com/com/android/support/support-annotations/28.0.0/support-annotations-28.0.0.jar
a086481e014492fd3a4d5f4459875b8a70a201258f0b225836212ee29df0091a | https://maven.google.com/com/android/support/support-annotations/28.0.0/support-annotations-28.0.0.pom
e17e3b01dbea3f9ea1c86943292f903ca93d2231c6242e456e0b6a9c5817118a | https://maven.google.com/com/android/support/support-compat/28.0.0/support-compat-28.0.0.aar
6b79a06c2282fc0f961cfd826a26ad41ff5c457b0c11d9a6b6a63e51f53d961a | https://maven.google.com/com/android/support/support-compat/28.0.0/support-compat-28.0.0.pom
bbc7f65fc95649464733af373361532ab5f9f3b749c3badaa2bbf27e574b6c6f | https://maven.google.com/com/android/support/support-core-ui/28.0.0/support-core-ui-28.0.0.aar
708ad4a6a48ce625aee395fd0625ae5441fee8f0e25861406603f765e679b544 | https://maven.google.com/com/android/support/support-core-ui/28.0.0/support-core-ui-28.0.0.pom
c81e1e98ca3cb2edae002c69cf35b22aec364b8cb2f1042c97e206eb5790ac41 | https://maven.google.com/com/android/support/support-core-utils/28.0.0/support-core-utils-28.0.0.aar
86a744b8739e8b354d0ecaec35dd943dea9a66f0296a3a9c1eb384fc93a4eaf7 | https://maven.google.com/com/android/support/support-core-utils/28.0.0/support-core-utils-28.0.0.pom
3772fc738ada86824ba1a4b3f197c3dbd67b7ddcfe2c9db1de95ef2e3487a915 | https://maven.google.com/com/android/support/support-fragment/28.0.0/support-fragment-28.0.0.aar
d24bdade5b77b26b82d39beda9fa0f42bcdf61cb5661a3c66ddfde3f77869b07 | https://maven.google.com/com/android/support/support-fragment/28.0.0/support-fragment-28.0.0.pom
266eff9605f515013eee1ebdbd8818a9270696dc807f34bbcc5fc11fb61a22c7 | https://maven.google.com/com/android/support/support-media-compat/28.0.0/support-media-compat-28.0.0.aar
e88505a92565f4c0fabb1c9a40326a339a2d51ee843c8a097828a3a85c934f27 | https://maven.google.com/com/android/support/support-media-compat/28.0.0/support-media-compat-28.0.0.pom
8b9031381c678d628c9e47b566ae1d161e1c9710f7855c759beeac7596cecf30 | https://maven.google.com/com/android/support/support-v4/28.0.0/support-v4-28.0.0.aar
428da44d913e410db4dfcf732faa0082283e4eb6563a98a0bfb92022460a4dd4 | https://maven.google.com/com/android/support/support-v4/28.0.0/support-v4-28.0.0.pom
f658986d968172bccfed28578471c96050780fe5e133861e4d331069cc373f4d | https://maven.google.com/com/android/support/support-vector-drawable/28.0.0/support-vector-drawable-28.0.0.aar
1e54416142b0f1274db09bbea1808f5cf9311c895bb0d84adaa18a7b5132aadc | https://maven.google.com/com/android/support/support-vector-drawable/28.0.0/support-vector-drawable-28.0.0.pom
a3b41f7f6730866b49865e86e49f988d4858699765f534300fb2ff5f9325e712 | https://maven.google.com/com/android/support/swiperefreshlayout/28.0.0/swiperefreshlayout-28.0.0.aar
c2e08d32b75d98a844f20be02510c830f7e5b53f64907af2270a898d59dc872f | https://maven.google.com/com/android/support/swiperefreshlayout/28.0.0/swiperefreshlayout-28.0.0.pom
45d09fc51284c17bbab300f5122512ac7d7348a6d23bda2051648bbe76cc9aa5 | https://maven.google.com/com/android/support/transition/28.0.0/transition-28.0.0.aar
771e8fe3b4dc0be4289db8e542bf134d7a032d8addedea070a3e951dc016d078 | https://maven.google.com/com/android/support/transition/28.0.0/transition-28.0.0.pom
60eb1cb08f71b65c3f6123135e03ebeb5930b5e126e1e5b2ac91b386908c9d02 | https://maven.google.com/com/android/support/versionedparcelable/28.0.0/versionedparcelable-28.0.0.aar
e7d6f726e702b418998fab6284df2f509f5acdf9203ced37c8d1274f9e38447b | https://maven.google.com/com/android/support/versionedparcelable/28.0.0/versionedparcelable-28.0.0.pom
013c4c53058758ec104dbae970be58159f75dfe342ba8b937d15ff5282e35ffc | https://maven.google.com/com/android/support/viewpager/28.0.0/viewpager-28.0.0.aar
080bba6573f6a4a9b2af443bf4ecb2a7ac4302a027274cc9bf9fdd51f409430e | https://maven.google.com/com/android/support/viewpager/28.0.0/viewpager-28.0.0.pom
22189a009a57c1741f74deeae5442a101c1c5c8bd6c6404e8e87a7d7f58044e4 | https://maven.google.com/com/android/tools/analytics-library/crash/26.4.2/crash-26.4.2.jar
aea2ab26c83212e1b81b5d2e91056ea41b1dbbc2f0801bbb3921a405da6bf685 | https://maven.google.com/com/android/tools/analytics-library/crash/26.4.2/crash-26.4.2.pom
2f371f5b1f551e85ab08be4d6a2873471b3d44afd1ebf6aa3298f3b796bf691f | https://maven.google.com/com/android/tools/analytics-library/protos/26.2.1/protos-26.2.1.jar
c7758a7ca3a1d03b26fe4ef14532f4ffbe83c7f28ee3c9146986573fc8b92e3e | https://maven.google.com/com/android/tools/analytics-library/protos/26.2.1/protos-26.2.1.pom
39f429bc72340a45ea1b77ade9a4aa11ecebcb2a9dd0bb3619bfedc40800af0e | https://maven.google.com/com/android/tools/analytics-library/protos/26.4.2/protos-26.4.2.jar
ff1ca6ebc2153aaf2ec92880c3240971b4aee894b19bd145f6385fbb18808029 | https://maven.google.com/com/android/tools/analytics-library/protos/26.4.2/protos-26.4.2.pom
4c1e4e705fa4d45f23aaea230557f6508155012d9c296337787c1d7b26a97f5a | https://maven.google.com/com/android/tools/analytics-library/shared/26.2.1/shared-26.2.1.jar
4eacca0543cb52098c7a322b76eb431e1e27ceaaf2094a099dde6c0639a3ef01 | https://maven.google.com/com/android/tools/analytics-library/shared/26.2.1/shared-26.2.1.pom
a3ee9f50da48f12d3677f18372fffdcf51f3c340335e335fb71365c92e31d1de | https://maven.google.com/com/android/tools/analytics-library/shared/26.4.2/shared-26.4.2.jar
95cadcfabab9a6a7e8a2146938de653b559161c098d82a9d34621bbd2b8cdab9 | https://maven.google.com/com/android/tools/analytics-library/shared/26.4.2/shared-26.4.2.pom
4a624ecc976539f755ddb0bb8dfc2dd3d08326cfec59a098dbd70f701ca7fb75 | https://maven.google.com/com/android/tools/analytics-library/tracker/26.2.1/tracker-26.2.1.jar
fd1923c63290e6cdb1362483218fd140cb15b82ec537d1a50447bb23acd05f90 | https://maven.google.com/com/android/tools/analytics-library/tracker/26.2.1/tracker-26.2.1.pom
b888eba61ebe734f8e50b60fa1bf38d9144dc031abb3704d6f2b4e445a53196e | https://maven.google.com/com/android/tools/analytics-library/tracker/26.4.2/tracker-26.4.2.jar
ccfc624a522641d858e7a6477abb698889bd81de584d04b705a737bd59d7c784 | https://maven.google.com/com/android/tools/analytics-library/tracker/26.4.2/tracker-26.4.2.pom
7391c6a1e080174b96e64ceb078dadd31ce4d8a2d2fee0ec65be202126f90f24 | https://maven.google.com/com/android/tools/annotations/26.2.1/annotations-26.2.1.jar
64d79783e2dffc1fec58146051bdd93a2fca23113a5b8443db6eb1d77dedfdec | https://maven.google.com/com/android/tools/annotations/26.2.1/annotations-26.2.1.pom
1877849936f48cd65857bf448743f9a0bf93ed47fe57527d9ad8af875024888d | https://maven.google.com/com/android/tools/annotations/26.4.2/annotations-26.4.2.jar
c17bdf198c7609ce6fc63169800b26e366ff3131b8360ca9979c8234eba90c44 | https://maven.google.com/com/android/tools/annotations/26.4.2/annotations-26.4.2.pom
8e0ae5bfe813ed34a8ddbd8a71cd356d84f0fe70a74a7582c029d4444d9a2cab | https://maven.google.com/com/android/tools/build/aapt2/3.4.2-5326820/aapt2-3.4.2-5326820-linux.jar
a7d42baee36d11ebef1d15431ebffed2da98cc088a3aecfdf782463194977368 | https://maven.google.com/com/android/tools/build/aapt2/3.4.2-5326820/aapt2-3.4.2-5326820.pom
a503219b89b0aaf7b7c6c9b3b17d69e655a6c619072b684a1ea4fbf1d7dc49da | https://maven.google.com/com/android/tools/build/aapt2-proto/0.3.1/aapt2-proto-0.3.1.jar
31e5f0e56b59a7c1433ab4a0396fd6178ef28def6cf6eb58e235d7cf40efd01d | https://maven.google.com/com/android/tools/build/aapt2-proto/0.3.1/aapt2-proto-0.3.1.pom
7cb448a8317dc3b82629898c211895862453eee62acb12ad23c32ccdc2c942e2 | https://maven.google.com/com/android/tools/build/apksig/3.4.2/apksig-3.4.2.jar
bf7a23f999b0ad601ff9bf7b1e3987993587e51527e1b00991f4cc85370b2fc1 | https://maven.google.com/com/android/tools/build/apksig/3.4.2/apksig-3.4.2.pom
e00dbbd0997beba194e18d2a62647e42b2e62192652796bcbe5ea9b06687ba5c | https://maven.google.com/com/android/tools/build/apkzlib/3.4.2/apkzlib-3.4.2.jar
256d360aa2524cebf97cf245b93e175b7062719c68d015297cfef37cfe9930ab | https://maven.google.com/com/android/tools/build/apkzlib/3.4.2/apkzlib-3.4.2.pom
3d104b1e0083aac49f5ea8d5e0e0cd740dd333bef2683a3214e1cd1953ffd661 | https://maven.google.com/com/android/tools/build/builder/3.4.2/builder-3.4.2.jar
0e7df1472a90a67d611f17528dfc2b6bcbc9fa7f799573ba79ec4407305a2ad8 | https://maven.google.com/com/android/tools/build/builder/3.4.2/builder-3.4.2.pom
a9f68e6abcec122f9cb5ad352d3f05a3eb03acbcdca95e4d25c16310c2c965ff | https://maven.google.com/com/android/tools/build/builder-model/3.2.1/builder-model-3.2.1.jar
4d2a35833cb9afee4d37b68c16280f8afc64de0e7cecdac1022dbafa2473e31f | https://maven.google.com/com/android/tools/build/builder-model/3.2.1/builder-model-3.2.1.pom
ddb36ca7fe72024bd53fbdd2700f1a9a9af5b1502062d59952eb3da7584fe413 | https://maven.google.com/com/android/tools/build/builder-model/3.4.2/builder-model-3.4.2.jar
677521e59c49c5e9c99ae390bab53139d062f05764d7363894c1e1864ef0aff5 | https://maven.google.com/com/android/tools/build/builder-model/3.4.2/builder-model-3.4.2.pom
533ac6c2b5884bb54967a33791f2628dfdfac7981af39417a333b43d4379b6be | https://maven.google.com/com/android/tools/build/builder-test-api/3.2.1/builder-test-api-3.2.1.jar
16c4e26de8c9ce509a2e81eb4c571d5d6a6e792d9425dbc710dca93793a4e12d | https://maven.google.com/com/android/tools/build/builder-test-api/3.2.1/builder-test-api-3.2.1.pom
40c62a008da4fa933cb20135227409d2953ed88ed68195e0f631d326c5675c46 | https://maven.google.com/com/android/tools/build/builder-test-api/3.4.2/builder-test-api-3.4.2.jar
7d96325cc2fef2fa3898d121e936528f987caddbbab7cfddb524c6995b09ab1f | https://maven.google.com/com/android/tools/build/builder-test-api/3.4.2/builder-test-api-3.4.2.pom
420bb34c44c9e3341583fa90bb4ad331db0b2ed902a5e75b9a420f4edd9f7894 | https://maven.google.com/com/android/tools/build/bundletool/0.7.2/bundletool-0.7.2.jar
e917f5fc3bef4e31107c1aaa0e47781e788be9d86682288f44cd4a3ad17b3459 | https://maven.google.com/com/android/tools/build/bundletool/0.7.2/bundletool-0.7.2.pom
536afc619d2678b80bd7d0b5674be249f05fad349a8717998b69d48f66062fb5 | https://maven.google.com/com/android/tools/build/gradle/3.4.2/gradle-3.4.2.jar
e1d38f808e126ada6b7f77cc1d66e7fce01d1e03941d14e38062d41b7ab37953 | https://maven.google.com/com/android/tools/build/gradle/3.4.2/gradle-3.4.2.pom
e6cddde562483c96b699be25fc91a78e141397e51a382eedae9b2c0e22ea22f5 | https://maven.google.com/com/android/tools/build/gradle-api/3.4.2/gradle-api-3.4.2.jar
cc23bd10f9843e57f6f2bb1f5731ac32e1d73696927f93c3ea2972d76de3b017 | https://maven.google.com/com/android/tools/build/gradle-api/3.4.2/gradle-api-3.4.2.pom
c9f8b016144cfb31c5aee92d47f34de23289167cac5e8ef68365b2dd05766f11 | https://maven.google.com/com/android/tools/build/jetifier/jetifier-core/1.0.0-beta04/jetifier-core-1.0.0-beta04.jar
db025ad1bbc6896edf0f67cda1222ba9b7ec9a0187df7f4fd0a318475c758e4e | https://maven.google.com/com/android/tools/build/jetifier/jetifier-core/1.0.0-beta04/jetifier-core-1.0.0-beta04.pom
1dd481e7606ccb30868908d9ae80f27d1c5ba882f792532bd91ed731c54f4efb | https://maven.google.com/com/android/tools/build/jetifier/jetifier-processor/1.0.0-beta04/jetifier-processor-1.0.0-beta04.jar
4973a6c6d7f89297a1cfea56c623cea72b3db3b4a49992afa00dd77ac052b89f | https://maven.google.com/com/android/tools/build/jetifier/jetifier-processor/1.0.0-beta04/jetifier-processor-1.0.0-beta04.pom
8830573263361035d38cfdcb51e2db94029c93865b21334f5fbf8a27984281a6 | https://maven.google.com/com/android/tools/build/manifest-merger/26.2.1/manifest-merger-26.2.1.jar
56c44bf0b7adc2d174ec5a93502c9188ac3e5c48668a732fbb161d08d54dbe19 | https://maven.google.com/com/android/tools/build/manifest-merger/26.2.1/manifest-merger-26.2.1.pom
86a43c18ab36ae51b997784880492336c009891a05df7b40a574da51031c3f63 | https://maven.google.com/com/android/tools/build/manifest-merger/26.4.2/manifest-merger-26.4.2.jar
d2575b5e4a009a32dddfbae58fc882d54345ca29e1e9d550ac689ab637524b01 | https://maven.google.com/com/android/tools/build/manifest-merger/26.4.2/manifest-merger-26.4.2.pom
4de4a3d05e1c534c2db9e4588bf34082bb2bd232d8abb9727c430290ce225740 | https://maven.google.com/com/android/tools/build/transform-api/2.0.0-deprecated-use-gradle-api/transform-api-2.0.0-deprecated-use-gradle-api.jar
7c62f3856e8abca1d79257925f26c12668693f5d95904056bbac88605cfd8575 | https://maven.google.com/com/android/tools/build/transform-api/2.0.0-deprecated-use-gradle-api/transform-api-2.0.0-deprecated-use-gradle-api.pom
a50aab2d6411ff68f4004a87c7e93d87d8e980a0ec3b352246549897ea2d78e5 | https://maven.google.com/com/android/tools/common/26.2.1/common-26.2.1.jar
c5bd83a597baf99567c4469795d155c1928dc738e0eff398d96e38f8ad78b21f | https://maven.google.com/com/android/tools/common/26.2.1/common-26.2.1.pom
bbda65fe64198125142ecc2079b62835f50ae105e51f34f8349ac129b72efd7c | https://maven.google.com/com/android/tools/common/26.4.2/common-26.4.2.jar
612f0dcf0c4675737ae8e214bb5b16b8536aaa3cfb786dfa93245e6e8b450e73 | https://maven.google.com/com/android/tools/common/26.4.2/common-26.4.2.pom
a4bf0a29a19980bf27269465cc782064656750b77c26728f82f9e148b705218b | https://maven.google.com/com/android/tools/ddms/ddmlib/26.2.1/ddmlib-26.2.1.jar
79ba9d3e1f1d5b975a9e29d9261bd449c730f152ed4c5ebb3e297719eff050f0 | https://maven.google.com/com/android/tools/ddms/ddmlib/26.2.1/ddmlib-26.2.1.pom
330e3eb76d2f96e3931a8cccdbf16435e92b3398dcaa8b65c8cd1034864de720 | https://maven.google.com/com/android/tools/ddms/ddmlib/26.4.2/ddmlib-26.4.2.jar
4aeb9585e81656f358fd1a7a45f8c711a9eef8a61ba88641e76f776cf4f1aa10 | https://maven.google.com/com/android/tools/ddms/ddmlib/26.4.2/ddmlib-26.4.2.pom
72a83bf2839b1df9b1fbf67ba45d1bfb9f966cd774da4320c762b2be8f1688aa | https://maven.google.com/com/android/tools/dvlib/26.2.1/dvlib-26.2.1.jar
1ca1b14c0281275a58b67cd5e3af180d65a105340d89f0766e6bd0eee6047281 | https://maven.google.com/com/android/tools/dvlib/26.2.1/dvlib-26.2.1.pom
f34fa4196d78b1c36db2e016303d59935fdc2b1abd0b4e40b95fa63d6087c582 | https://maven.google.com/com/android/tools/dvlib/26.4.2/dvlib-26.4.2.jar
fe401446f64f3531565ce332b09b0de5ca53134b3263ce931896f3f5d94460bf | https://maven.google.com/com/android/tools/dvlib/26.4.2/dvlib-26.4.2.pom
4925ad1892c2687cb1a63427d440ef519c8c59215fefe0dc5d541d5d411fcafe | https://maven.google.com/com/android/tools/external/com-intellij/intellij-core/26.2.1/intellij-core-26.2.1.jar
7cd28289534ac8effe3c4f18eccffc79eb5774c271da390ba49a34961e692881 | https://maven.google.com/com/android/tools/external/com-intellij/intellij-core/26.2.1/intellij-core-26.2.1.pom
890258258338ddfdec138852d099fec389cdcdf1d0a9cb2d0775e4275cb3a05d | https://maven.google.com/com/android/tools/external/com-intellij/intellij-core/26.4.2/intellij-core-26.4.2.jar
e772f888bf1cb338f5f6d7801516cb48e31b57f8d81ae07304b0ad1a2cb1c8dc | https://maven.google.com/com/android/tools/external/com-intellij/intellij-core/26.4.2/intellij-core-26.4.2.pom
daa064fd708f340ee25fb9823c4c74104ac77f1370b76d907eb9ae6daec0a2ae | https://maven.google.com/com/android/tools/external/com-intellij/kotlin-compiler/26.2.1/kotlin-compiler-26.2.1.jar
1ccfc320980199e8bd65bcaa061514711aa7a8a8a46e420bf7be7a441565fb01 | https://maven.google.com/com/android/tools/external/com-intellij/kotlin-compiler/26.2.1/kotlin-compiler-26.2.1.pom
f97df41a49d2f9ec428d847b0691b55541d4b5d4db19d630cf8dc3f38cd34d4a | https://maven.google.com/com/android/tools/external/com-intellij/kotlin-compiler/26.4.2/kotlin-compiler-26.4.2.jar
7adec4d67ee1ea6cda230bdd549f275c4a5cf08230c9407f632953adc0e26434 | https://maven.google.com/com/android/tools/external/com-intellij/kotlin-compiler/26.4.2/kotlin-compiler-26.4.2.pom
f10f7258d2ab9189562cc0f9ad838c0378fdba439229173390a99de02ebac75b | https://maven.google.com/com/android/tools/external/org-jetbrains/uast/26.2.1/uast-26.2.1.jar
aa377092896a6dc69da9fcc84eecb410b7db12508581c43505bc921d8e90829b | https://maven.google.com/com/android/tools/external/org-jetbrains/uast/26.2.1/uast-26.2.1.pom
187b199e1744bd3e922fb52d8f3366311468bd263aab24c65ee989d7ce8c55c3 | https://maven.google.com/com/android/tools/external/org-jetbrains/uast/26.4.2/uast-26.4.2.jar
0f308532ff2c78cfbb61f563cf65e8cf408afb8a615598c512649a9c397177d4 | https://maven.google.com/com/android/tools/external/org-jetbrains/uast/26.4.2/uast-26.4.2.pom
ddbf4fca123733fa011595b1cc1f4ac2937ed327b60990711fafc33c775c2ade | https://maven.google.com/com/android/tools/layoutlib/layoutlib-api/26.2.1/layoutlib-api-26.2.1.jar
21e06d8c4fb95d389b66a0613dd8dbb6cc88a336931035b61c6a71db174abca7 | https://maven.google.com/com/android/tools/layoutlib/layoutlib-api/26.2.1/layoutlib-api-26.2.1.pom
52fbb3614feee0d5d474c35f8c533ff3fa090cbf0df46c06e4cf353cae1c3652 | https://maven.google.com/com/android/tools/layoutlib/layoutlib-api/26.4.2/layoutlib-api-26.4.2.jar
d59ef58abb73f06650ce1d80641fe70a3908a071fc5f98267074e6e42f904360 | https://maven.google.com/com/android/tools/layoutlib/layoutlib-api/26.4.2/layoutlib-api-26.4.2.pom
7848b82ae988b90dee259ae7c7e86e05cbf52db6cd21c8bbd38ce7df08f3f8c5 | https://maven.google.com/com/android/tools/lint/lint/26.2.1/lint-26.2.1.jar
445ce6f3c911a11c0f4a1dff662baa5e2a9a6524281a4b60226cf25dd225b548 | https://maven.google.com/com/android/tools/lint/lint/26.2.1/lint-26.2.1.pom
5eeb74d75aad007428ce5077f2c5c721cc7a2bb702b0525fa9605efad3afd7e8 | https://maven.google.com/com/android/tools/lint/lint/26.4.2/lint-26.4.2.jar
ac7e208ce2e2bfece25498538c6a16b501a4813818149fc1f0670778b7bd6b24 | https://maven.google.com/com/android/tools/lint/lint/26.4.2/lint-26.4.2.pom
3b57e739de567b98bc9ab56c2c0ee66fc026b4adf5843e8f9804ca0666a6f66e | https://maven.google.com/com/android/tools/lint/lint-api/26.2.1/lint-api-26.2.1.jar
8c3ad3303516cfcb96aa367757a429dbd5f6b6fa63e0c3bff4213b63fe76f69b | https://maven.google.com/com/android/tools/lint/lint-api/26.2.1/lint-api-26.2.1.pom
d12d58c8a2ccb68daa7cbd70a0904b8f05dfdfc6c3a1871923b1b903bf5bf4da | https://maven.google.com/com/android/tools/lint/lint-api/26.4.2/lint-api-26.4.2.jar
d3cdb948a13f651daf42dba2b488e4cd76092cfc5c00993c653060fb298b7ec8 | https://maven.google.com/com/android/tools/lint/lint-api/26.4.2/lint-api-26.4.2.pom
c86f4cc9aaee722ee4ad70062f7b5af91e9b041914af27adc09f545ab0fb3bc6 | https://maven.google.com/com/android/tools/lint/lint-checks/26.2.1/lint-checks-26.2.1.jar
d5760172fe3dedec8f1304420bc304c0c2cae1ee24972bba7ad9c03bf0ac679e | https://maven.google.com/com/android/tools/lint/lint-checks/26.2.1/lint-checks-26.2.1.pom
8a0246f594d685bda999a66b2409cb4e0da59e59a66021c9293fdb40cc49d879 | https://maven.google.com/com/android/tools/lint/lint-checks/26.4.2/lint-checks-26.4.2.jar
e9327b00b990f6b28f8cc974e98ea4436bbf03e2bc66ea4769970eb26dd840b5 | https://maven.google.com/com/android/tools/lint/lint-checks/26.4.2/lint-checks-26.4.2.pom
7e8e000f063f42f10ca209f51a48b332db1c4d3ac30979cc49c1877ef9e4b7f1 | https://maven.google.com/com/android/tools/lint/lint-gradle/26.4.2/lint-gradle-26.4.2.jar
9f370942017e7472655aaff53ad550429e459581adf0c78e5b1fb071f61cb9e3 | https://maven.google.com/com/android/tools/lint/lint-gradle/26.4.2/lint-gradle-26.4.2.pom
90c6a1a650a257abb5d445dde9c172d55e6d28ce943a35b4e263c4cb3dcc96b0 | https://maven.google.com/com/android/tools/lint/lint-gradle-api/26.4.2/lint-gradle-api-26.4.2.jar
a8496204c0e7def7adee23e3d0f7ff0117b92c4809ecc8d2c06fc6b18b53e7c6 | https://maven.google.com/com/android/tools/lint/lint-gradle-api/26.4.2/lint-gradle-api-26.4.2.pom
7a6a5d2b18f69cf1b900d857c2632b4c683713c533295933b8b759f8cab4a877 | https://maven.google.com/com/android/tools/lint/lint-kotlin/26.2.1/lint-kotlin-26.2.1.jar
c4c54f08f4dbdd379d6a9d6d3e1d66e0f2106d849591112742784ae62678b3c2 | https://maven.google.com/com/android/tools/lint/lint-kotlin/26.2.1/lint-kotlin-26.2.1.pom
fa74dae09103faef703df38550ad8fa244c5b6d1bf90d6198be932292b3d9cc1 | https://maven.google.com/com/android/tools/repository/26.2.1/repository-26.2.1.jar
eb078adfb208eae7524d00d0ce03196a2c81353db78c7f9613885c19690cf2de | https://maven.google.com/com/android/tools/repository/26.2.1/repository-26.2.1.pom
5183d0d2493d588d7960f954221a29130b67f1ac5f78c2d6f69195346b69617a | https://maven.google.com/com/android/tools/repository/26.4.2/repository-26.4.2.jar
98702b96fb86f22c1f230316ae8172fd9e843929485bba86a1a01e97614a8434 | https://maven.google.com/com/android/tools/repository/26.4.2/repository-26.4.2.pom
759d4b292ca69a35cf961fca377b54158fc6c88108978006999442e80a011cf4 | https://maven.google.com/com/android/tools/sdk-common/26.2.1/sdk-common-26.2.1.jar
dabf483508f36704e8a1d7c29cda5135ad9cdb6169f556908182954ee88e0b1f | https://maven.google.com/com/android/tools/sdk-common/26.2.1/sdk-common-26.2.1.pom
df1e814bdcee8f60c1057a3df2b2cd6c089623414017283740eb50152f1e70c5 | https://maven.google.com/com/android/tools/sdk-common/26.4.2/sdk-common-26.4.2.jar
c7786e12c89c77e4daea2ebb991491821f90364cd5e06a02b56371a42084b3c0 | https://maven.google.com/com/android/tools/sdk-common/26.4.2/sdk-common-26.4.2.pom
248df7ad5eac4aeb6f96c394c76760de4b7b89ac056e54d0c21a739368b91b45 | https://maven.google.com/com/android/tools/sdklib/26.2.1/sdklib-26.2.1.jar
7031d2d09683996ac126074be3de6df9b3de80f7e0f10b80a6e8754f69c80028 | https://maven.google.com/com/android/tools/sdklib/26.2.1/sdklib-26.2.1.pom
ebec9d8e0a140b376aade276b08572cb1f8cf954249b469bee6dce6fd5a45cd4 | https://maven.google.com/com/android/tools/sdklib/26.4.2/sdklib-26.4.2.jar
768b365f2486e344d012d5b4b9b195fde8bfb442c23dca89d258a7766cdba5c8 | https://maven.google.com/com/android/tools/sdklib/26.4.2/sdklib-26.4.2.pom
42ebde4e470b5c09c8ef19d452fad3d70459a7a4a8f06ce20114a081343e7e0e | https://plugins.gradle.org/m2/org/mozilla/apilint/apilint/0.2.7/apilint-0.2.7.jar
f1efc89ead9ef1636f072654111abd650f3cb8ce7bb817ce99f15cd969ac3f6c | https://plugins.gradle.org/m2/org/mozilla/apilint/apilint/0.2.7/apilint-0.2.7.pom
